Jul 10, 2017 9:12:22 AM l1j.server.Config load
INFO: loading gameserver config
Jul 10, 2017 9:12:22 AM com.mchange.v2.log.MLog <clinit>
INFO: MLog clients using java 1.4+ standard logging.
Jul 10, 2017 9:12:22 AM com.mchange.v2.c3p0.C3P0Registry banner
INFO: Initializing c3p0-0.9.1.2 [built 21-May-2007 15:04:56; debug? true; trace: 10]
Jul 10, 2017 9:12:22 AM com.mchange.v2.c3p0.impl.AbstractPoolBackedDataSource getPoolManager
INFO: Initializing c3p0 pool... com.mchange.v2.c3p0.ComboPooledDataSource [ acquireIncrement -> 5, acquireRetryAttempts -> 0, acquireRetryDelay -> 500, autoCommitOnClose -> true, automaticTestTable -> connection_test_table, breakAfterAcquireFailure -> false, checkoutTimeout -> 0, connectionCustomizerClassName -> null, connectionTesterClassName -> com.mchange.v2.c3p0.impl.DefaultConnectionTester, dataSourceName -> 1br9tvq9pc57sqrxex9m0|49097b5d, debugUnreturnedConnectionStackTraces -> false, description -> null, driverClass -> com.mysql.jdbc.Driver, factoryClassLocation -> null, forceIgnoreUnresolvedTransactions -> false, identityToken -> 1br9tvq9pc57sqrxex9m0|49097b5d, idleConnectionTestPeriod -> 60, initialPoolSize -> 10, jdbcUrl -> jdbc:mysql://lineage.c05pfwlo7viq.ap-southeast-1.rds.amazonaws.com/l1jdbtw?useUnicode=true&characterEncoding=utf8, maxAdministrativeTaskTime -> 0, maxConnectionAge -> 0, maxIdleTime -> 0, maxIdleTimeExcessConnections -> 0, maxPoolSize -> 100, maxStatements -> 0, maxStatementsPerConnection -> 100, minPoolSize -> 10, numHelperThreads -> 3, numThreadsAwaitingCheckoutDefaultUser -> 0, preferredTestQuery -> null, properties -> {user=******, password=******}, propertyCycle -> 0, testConnectionOnCheckin -> false, testConnectionOnCheckout -> false, unreturnedConnectionTimeout -> 0, usesTraditionalReflectiveProxies -> false ]
Jul 10, 2017 9:12:23 AM l1j.server.server.IdFactory loadState
INFO: 目前的物件ID: 268704633
Jul 10, 2017 9:12:23 AM l1j.server.server.datatables.MapsTable loadMapsFromDatabase
CONFIG: Maps 638
Jul 10, 2017 9:12:23 AM l1j.server.server.datatables.UBTable loadTable
CONFIG: UBリスト 5件ロード
Jul 10, 2017 9:12:23 AM com.mchange.v2.c3p0.stmt.GooGooStatementCache assimilateNewCheckedOutStatement
INFO: Multiply prepared statement! SELECT clan_id FROM clan_data WHERE hascastle = ?
Jul 10, 2017 9:12:23 AM com.mchange.v2.c3p0.stmt.GooGooStatementCache assimilateNewCheckedOutStatement
INFO: Multiply prepared statement! SELECT clan_id FROM clan_data WHERE hascastle = ?
Jul 10, 2017 9:12:23 AM com.mchange.v2.c3p0.stmt.GooGooStatementCache assimilateNewCheckedOutStatement
INFO: Multiply prepared statement! SELECT clan_id FROM clan_data WHERE hascastle = ?
Jul 10, 2017 9:12:23 AM com.mchange.v2.c3p0.stmt.GooGooStatementCache assimilateNewCheckedOutStatement
INFO: Multiply prepared statement! SELECT clan_id FROM clan_data WHERE hascastle = ?
Jul 10, 2017 9:12:23 AM com.mchange.v2.c3p0.stmt.GooGooStatementCache assimilateNewCheckedOutStatement
INFO: Multiply prepared statement! SELECT clan_id FROM clan_data WHERE hascastle = ?
Jul 10, 2017 9:12:23 AM com.mchange.v2.c3p0.stmt.GooGooStatementCache assimilateNewCheckedOutStatement
INFO: Multiply prepared statement! SELECT clan_id FROM clan_data WHERE hascastle = ?
Jul 10, 2017 9:12:23 AM com.mchange.v2.c3p0.stmt.GooGooStatementCache assimilateNewCheckedOutStatement
INFO: Multiply prepared statement! SELECT clan_id FROM clan_data WHERE hascastle = ?
Jul 10, 2017 9:12:23 AM l1j.server.server.Announcements readFromDisk
CONFIG: 讀取了  3 件公告
Jul 10, 2017 9:12:24 AM l1j.server.server.Announcecycle readFromDiskmulti
CONFIG: Announcecycle: Loaded 5 Announcecycle.
Jul 10, 2017 9:12:25 AM l1j.server.server.datatables.SprTable loadSprAction
CONFIG: SPRデータ 4843件ロード
Jul 10, 2017 9:12:25 AM l1j.server.server.datatables.MobGroupTable loadMobGroup
CONFIG: MOBグループリスト 79件ロード
Jul 10, 2017 9:12:26 AM l1j.server.server.datatables.SpawnTable fillSpawnTable
FINE: 総モンスター数 26692匹
Jul 10, 2017 9:12:26 AM l1j.server.server.datatables.SpawnTable <init>
CONFIG: モンスター配置リスト 6601件ロード
Jul 10, 2017 9:12:26 AM l1j.server.server.datatables.SkillsTable FillSkillsTable
CONFIG: スキル 253件ロード
Jul 10, 2017 9:12:26 AM l1j.server.server.datatables.PolyTable fillPolyTable
CONFIG: 変身リスト 297件ロード
Jul 10, 2017 9:12:26 AM l1j.server.server.datatables.DropItemTable loadMapsFromDatabase
CONFIG: drop_item 76
Jul 10, 2017 9:12:26 AM l1j.server.server.datatables.NPCTalkDataTable parseList
CONFIG: NPCアクションリスト 1112件ロード
Jul 10, 2017 9:12:27 AM l1j.server.server.datatables.NpcSpawnTable fillNpcSpawnTable
CONFIG: NPC配置リスト 2325件ロード
Jul 10, 2017 9:12:27 AM l1j.server.server.datatables.NpcSpawnTable fillNpcSpawnTable
FINE: 総NPC数 2325件
Jul 10, 2017 9:12:27 AM l1j.server.server.datatables.UBSpawnTable loadSpawnTable
CONFIG: UBモンスター配置リスト 454件ロード
Jul 10, 2017 9:12:29 AM l1j.server.server.datatables.WeaponSkillTable fillWeaponSkillTable
CONFIG: 武器スキルリスト 25件ロード
Jul 10, 2017 9:12:30 AM l1j.server.server.model.L1BossSpawn spawnBoss
FINE: [MOB]npcid:45228 name:希爾黛斯[Type]Caspa[現在の周期]Mon Jul 10 09:10:00 UTC 2017 - Mon Jul 10 09:20:00 UTC 2017[出現時間]Mon Jul 10 09:13:05 UTC 2017
Jul 10, 2017 9:12:30 AM l1j.server.server.model.L1BossSpawn spawnBoss
FINE: [MOB]npcid:45313 name:老虎[Type]Unknown[現在の周期]Mon Jul 10 09:10:00 UTC 2017 - Mon Jul 10 09:20:00 UTC 2017[出現時間]Mon Jul 10 09:19:11 UTC 2017
Jul 10, 2017 9:12:30 AM l1j.server.server.model.L1BossSpawn spawnBoss
FINE: [MOB]npcid:45317 name:強盜[Type]DK[現在の周期]Mon Jul 10 09:10:00 UTC 2017 - Mon Jul 10 09:20:00 UTC 2017[出現時間]Mon Jul 10 09:11:09 UTC 2017
Jul 10, 2017 9:12:30 AM l1j.server.server.model.L1BossSpawn spawnBoss
FINE: [MOB]npcid:45338 name:巨大鱷魚[Type]Caspa[現在の周期]Mon Jul 10 09:10:00 UTC 2017 - Mon Jul 10 09:20:00 UTC 2017[出現時間]Mon Jul 10 09:12:09 UTC 2017
Jul 10, 2017 9:12:30 AM l1j.server.server.model.L1BossSpawn spawnBoss
FINE: [MOB]npcid:45370 name:強盜頭目[Type]etc1[現在の周期]Mon Jul 10 09:10:00 UTC 2017 - Mon Jul 10 09:20:00 UTC 2017[出現時間]Mon Jul 10 09:10:51 UTC 2017
Jul 10, 2017 9:12:30 AM l1j.server.server.model.L1BossSpawn spawnBoss
FINE: [MOB]npcid:45370 name:強盜頭目[Type]etc1[現在の周期]Mon Jul 10 09:10:00 UTC 2017 - Mon Jul 10 09:20:00 UTC 2017[出現時間]Mon Jul 10 09:16:22 UTC 2017
Jul 10, 2017 9:12:30 AM l1j.server.server.model.L1BossSpawn spawnBoss
FINE: [MOB]npcid:45370 name:強盜頭目[Type]etc1[現在の周期]Mon Jul 10 09:10:00 UTC 2017 - Mon Jul 10 09:20:00 UTC 2017[出現時間]Mon Jul 10 09:12:29 UTC 2017
Jul 10, 2017 9:12:30 AM l1j.server.server.model.L1BossSpawn spawnBoss
FINE: [MOB]npcid:45370 name:強盜頭目[Type]etc1[現在の周期]Mon Jul 10 09:10:00 UTC 2017 - Mon Jul 10 09:20:00 UTC 2017[出現時間]Mon Jul 10 09:14:31 UTC 2017
Jul 10, 2017 9:12:30 AM l1j.server.server.model.L1BossSpawn spawnBoss
FINE: [MOB]npcid:45370 name:強盜頭目[Type]etc1[現在の周期]Mon Jul 10 09:10:00 UTC 2017 - Mon Jul 10 09:20:00 UTC 2017[出現時間]Mon Jul 10 09:14:06 UTC 2017
Jul 10, 2017 9:12:30 AM l1j.server.server.model.L1BossSpawn spawnBoss
FINE: [MOB]npcid:45456 name:魔法師[Type]etc1[現在の周期]Mon Jul 10 09:10:00 UTC 2017 - Mon Jul 10 09:20:00 UTC 2017[出現時間]Mon Jul 10 09:18:41 UTC 2017
Jul 10, 2017 9:12:30 AM l1j.server.server.model.L1BossSpawn spawnBoss
FINE: [MOB]npcid:45458 name:德雷克[Type]Oren[現在の周期]Mon Jul 10 09:10:00 UTC 2017 - Mon Jul 10 09:20:00 UTC 2017[出現時間]Mon Jul 10 09:11:10 UTC 2017
Jul 10, 2017 9:12:30 AM l1j.server.server.model.L1BossSpawn spawnBoss
FINE: [MOB]npcid:45488 name:卡士伯[Type]Caspa[現在の周期]Mon Jul 10 09:10:00 UTC 2017 - Mon Jul 10 09:20:00 UTC 2017[出現時間]Mon Jul 10 09:11:04 UTC 2017
Jul 10, 2017 9:12:30 AM l1j.server.server.model.L1BossSpawn spawnBoss
FINE: [MOB]npcid:45492 name:庫曼[Type]etc1[現在の周期]Mon Jul 10 09:10:00 UTC 2017 - Mon Jul 10 09:20:00 UTC 2017[出現時間]Mon Jul 10 09:13:09 UTC 2017
Jul 10, 2017 9:12:30 AM l1j.server.server.model.L1BossSpawn spawnBoss
FINE: [MOB]npcid:45534 name:曼波兔[Type]Caspa[現在の周期]Mon Jul 10 09:10:00 UTC 2017 - Mon Jul 10 09:20:00 UTC 2017[出現時間]Mon Jul 10 09:15:24 UTC 2017
Jul 10, 2017 9:12:30 AM l1j.server.server.model.L1BossSpawn spawnBoss
FINE: [MOB]npcid:45513 name:扭曲的潔尼斯女王[Type]Oren[現在の周期]Mon Jul 10 09:10:00 UTC 2017 - Mon Jul 10 09:20:00 UTC 2017[出現時間]Mon Jul 10 09:19:32 UTC 2017
Jul 10, 2017 9:12:30 AM l1j.server.server.model.L1BossSpawn spawnBoss
FINE: [MOB]npcid:45516 name:伊弗利特[Type]1Drake[現在の周期]Mon Jul 10 09:10:00 UTC 2017 - Mon Jul 10 09:20:00 UTC 2017[出現時間]Mon Jul 10 09:16:14 UTC 2017
Jul 10, 2017 9:12:30 AM l1j.server.server.model.L1BossSpawn spawnBoss
FINE: [MOB]npcid:45516 name:伊弗利特[Type]1Drake[現在の周期]Mon Jul 10 09:10:00 UTC 2017 - Mon Jul 10 09:20:00 UTC 2017[出現時間]Mon Jul 10 09:13:21 UTC 2017
Jul 10, 2017 9:12:30 AM l1j.server.server.model.L1BossSpawn spawnBoss
FINE: [MOB]npcid:45516 name:伊弗利特[Type]1Drake[現在の周期]Mon Jul 10 09:10:00 UTC 2017 - Mon Jul 10 09:20:00 UTC 2017[出現時間]Mon Jul 10 09:18:36 UTC 2017
Jul 10, 2017 9:12:30 AM l1j.server.server.model.L1BossSpawn spawnBoss
FINE: [MOB]npcid:45516 name:伊弗利特[Type]1Drake[現在の周期]Mon Jul 10 09:10:00 UTC 2017 - Mon Jul 10 09:20:00 UTC 2017[出現時間]Mon Jul 10 09:11:57 UTC 2017
Jul 10, 2017 9:12:30 AM l1j.server.server.model.L1BossSpawn spawnBoss
FINE: [MOB]npcid:45529 name:飛龍[Type]2Drake[現在の周期]Mon Jul 10 09:10:00 UTC 2017 - Mon Jul 10 09:20:00 UTC 2017[出現時間]Mon Jul 10 09:12:03 UTC 2017
Jul 10, 2017 9:12:30 AM l1j.server.server.model.L1BossSpawn spawnBoss
FINE: [MOB]npcid:45529 name:飛龍[Type]1Drake[現在の周期]Mon Jul 10 09:10:00 UTC 2017 - Mon Jul 10 09:20:00 UTC 2017[出現時間]Mon Jul 10 09:10:08 UTC 2017
Jul 10, 2017 9:12:30 AM l1j.server.server.model.L1BossSpawn spawnBoss
FINE: [MOB]npcid:45529 name:飛龍[Type]1Drake[現在の周期]Mon Jul 10 09:10:00 UTC 2017 - Mon Jul 10 09:20:00 UTC 2017[出現時間]Mon Jul 10 09:13:02 UTC 2017
Jul 10, 2017 9:12:30 AM l1j.server.server.model.L1BossSpawn spawnBoss
FINE: [MOB]npcid:45529 name:飛龍[Type]2Drake[現在の周期]Mon Jul 10 09:10:00 UTC 2017 - Mon Jul 10 09:20:00 UTC 2017[出現時間]Mon Jul 10 09:16:12 UTC 2017
Jul 10, 2017 9:12:30 AM l1j.server.server.model.L1BossSpawn spawnBoss
FINE: [MOB]npcid:45535 name:曼波兔[Type]Caspa[現在の周期]Mon Jul 10 09:10:00 UTC 2017 - Mon Jul 10 09:20:00 UTC 2017[出現時間]Mon Jul 10 09:15:24 UTC 2017
Jul 10, 2017 9:12:30 AM l1j.server.server.model.L1BossSpawn spawnBoss
FINE: [MOB]npcid:45545 name:黑長者[Type]Caspa[現在の周期]Mon Jul 10 09:10:00 UTC 2017 - Mon Jul 10 09:20:00 UTC 2017[出現時間]Mon Jul 10 09:18:02 UTC 2017
Jul 10, 2017 9:12:30 AM l1j.server.server.model.L1BossSpawn spawnBoss
FINE: [MOB]npcid:45545 name:黑長者[Type]Caspa[現在の周期]Mon Jul 10 09:10:00 UTC 2017 - Mon Jul 10 09:20:00 UTC 2017[出現時間]Mon Jul 10 09:16:45 UTC 2017
Jul 10, 2017 9:12:30 AM l1j.server.server.model.L1BossSpawn spawnBoss
FINE: [MOB]npcid:45546 name:變形怪首領[Type]Aden[現在の周期]Mon Jul 10 09:10:00 UTC 2017 - Mon Jul 10 09:20:00 UTC 2017[出現時間]Mon Jul 10 09:19:05 UTC 2017
Jul 10, 2017 9:12:30 AM l1j.server.server.model.L1BossSpawn spawnBoss
FINE: [MOB]npcid:45547 name:不幸的幻象眼魔[Type]Oren[現在の周期]Mon Jul 10 09:10:00 UTC 2017 - Mon Jul 10 09:20:00 UTC 2017[出現時間]Mon Jul 10 09:11:55 UTC 2017
Jul 10, 2017 9:12:30 AM l1j.server.server.model.L1BossSpawn spawnBoss
FINE: [MOB]npcid:45573 name:巴風特[Type]Oren[現在の周期]Mon Jul 10 09:10:00 UTC 2017 - Mon Jul 10 09:20:00 UTC 2017[出現時間]Mon Jul 10 09:17:35 UTC 2017
Jul 10, 2017 9:12:30 AM l1j.server.server.model.L1BossSpawn spawnBoss
FINE: [MOB]npcid:45583 name:巴列斯[Type]Oren[現在の周期]Mon Jul 10 09:10:00 UTC 2017 - Mon Jul 10 09:20:00 UTC 2017[出現時間]Mon Jul 10 09:10:08 UTC 2017
Jul 10, 2017 9:12:30 AM l1j.server.server.model.L1BossSpawn spawnBoss
FINE: [MOB]npcid:45584 name:巨大牛人[Type]Aden[現在の周期]Mon Jul 10 09:10:00 UTC 2017 - Mon Jul 10 09:20:00 UTC 2017[出現時間]Mon Jul 10 09:17:04 UTC 2017
Jul 10, 2017 9:12:30 AM l1j.server.server.model.L1BossSpawn spawnBoss
FINE: [MOB]npcid:45600 name:克特[Type]Night[現在の周期]Mon Jul 10 09:10:00 UTC 2017 - Mon Jul 10 09:20:00 UTC 2017[出現時間]Mon Jul 10 09:14:10 UTC 2017
Jul 10, 2017 9:12:30 AM l1j.server.server.model.L1BossSpawn spawnBoss
FINE: [MOB]npcid:45601 name:死亡騎士[Type]DK[現在の周期]Mon Jul 10 09:10:00 UTC 2017 - Mon Jul 10 09:20:00 UTC 2017[出現時間]Mon Jul 10 09:16:05 UTC 2017
Jul 10, 2017 9:12:30 AM l1j.server.server.model.L1BossSpawn spawnBoss
FINE: [MOB]npcid:45606 name:恐怖的吸血鬼[Type]Oren[現在の周期]Mon Jul 10 09:10:00 UTC 2017 - Mon Jul 10 09:20:00 UTC 2017[出現時間]Mon Jul 10 09:16:16 UTC 2017
Jul 10, 2017 9:12:30 AM l1j.server.server.model.L1BossSpawn spawnBoss
FINE: [MOB]npcid:45609 name:冰之女王侍女[Type]Oren[現在の周期]Mon Jul 10 09:10:00 UTC 2017 - Mon Jul 10 09:20:00 UTC 2017[出現時間]Mon Jul 10 09:13:18 UTC 2017
Jul 10, 2017 9:12:30 AM l1j.server.server.model.L1BossSpawn spawnBoss
FINE: [MOB]npcid:45610 name:古代巨人[Type]Aden[現在の周期]Mon Jul 10 09:10:00 UTC 2017 - Mon Jul 10 09:20:00 UTC 2017[出現時間]Mon Jul 10 09:10:08 UTC 2017
Jul 10, 2017 9:12:30 AM l1j.server.server.model.L1BossSpawn spawnBoss
FINE: [MOB]npcid:45614 name:巨蟻女皇[Type]DK[現在の周期]Mon Jul 10 09:10:00 UTC 2017 - Mon Jul 10 09:20:00 UTC 2017[出現時間]Mon Jul 10 09:19:20 UTC 2017
Jul 10, 2017 9:12:30 AM l1j.server.server.model.L1BossSpawn spawnBoss
FINE: [MOB]npcid:45617 name:不死鳥[Type]DK[現在の周期]Mon Jul 10 09:10:00 UTC 2017 - Mon Jul 10 09:20:00 UTC 2017[出現時間]Mon Jul 10 09:12:23 UTC 2017
Jul 10, 2017 9:12:30 AM l1j.server.server.model.L1BossSpawn spawnBoss
FINE: [MOB]npcid:45618 name:闇黑的騎士范德[Type]Oren[現在の周期]Mon Jul 10 09:10:00 UTC 2017 - Mon Jul 10 09:20:00 UTC 2017[出現時間]Mon Jul 10 09:17:29 UTC 2017
Jul 10, 2017 9:12:30 AM l1j.server.server.model.L1BossSpawn spawnBoss
FINE: [MOB]npcid:45625 name:混沌[Type]DK[現在の周期]Mon Jul 10 09:10:00 UTC 2017 - Mon Jul 10 09:20:00 UTC 2017[出現時間]Mon Jul 10 09:18:17 UTC 2017
Jul 10, 2017 9:12:30 AM l1j.server.server.model.L1BossSpawn spawnBoss
FINE: [MOB]npcid:45640 name:獨角獸[Type]Caspa[現在の周期]Mon Jul 10 09:10:00 UTC 2017 - Mon Jul 10 09:20:00 UTC 2017[出現時間]Mon Jul 10 09:11:55 UTC 2017
Jul 10, 2017 9:12:30 AM l1j.server.server.model.L1BossSpawn spawnBoss
FINE: [MOB]npcid:45642 name:土精靈王[Type]Caspa[現在の周期]Mon Jul 10 09:10:00 UTC 2017 - Mon Jul 10 09:20:00 UTC 2017[出現時間]Mon Jul 10 09:14:28 UTC 2017
Jul 10, 2017 9:12:30 AM l1j.server.server.model.L1BossSpawn spawnBoss
FINE: [MOB]npcid:45643 name:水精靈王[Type]Caspa[現在の周期]Mon Jul 10 09:10:00 UTC 2017 - Mon Jul 10 09:20:00 UTC 2017[出現時間]Mon Jul 10 09:19:25 UTC 2017
Jul 10, 2017 9:12:30 AM l1j.server.server.model.L1BossSpawn spawnBoss
FINE: [MOB]npcid:45644 name:風精靈王[Type]Caspa[現在の周期]Mon Jul 10 09:10:00 UTC 2017 - Mon Jul 10 09:20:00 UTC 2017[出現時間]Mon Jul 10 09:12:43 UTC 2017
Jul 10, 2017 9:12:30 AM l1j.server.server.model.L1BossSpawn spawnBoss
FINE: [MOB]npcid:45645 name:火精靈王[Type]Caspa[現在の周期]Mon Jul 10 09:10:00 UTC 2017 - Mon Jul 10 09:20:00 UTC 2017[出現時間]Mon Jul 10 09:13:14 UTC 2017
Jul 10, 2017 9:12:30 AM l1j.server.server.model.L1BossSpawn spawnBoss
FINE: [MOB]npcid:45646 name:深淵之主[Type]Oren[現在の周期]Mon Jul 10 09:10:00 UTC 2017 - Mon Jul 10 09:20:00 UTC 2017[出現時間]Mon Jul 10 09:11:07 UTC 2017
Jul 10, 2017 9:12:30 AM l1j.server.server.model.L1BossSpawn spawnBoss
FINE: [MOB]npcid:45649 name:惡魔[Type]Oren[現在の周期]Mon Jul 10 09:10:00 UTC 2017 - Mon Jul 10 09:20:00 UTC 2017[出現時間]Mon Jul 10 09:18:27 UTC 2017
Jul 10, 2017 9:12:30 AM l1j.server.server.model.L1BossSpawn spawnBoss
FINE: [MOB]npcid:45650 name:死亡的殭屍王[Type]Oren[現在の周期]Mon Jul 10 09:10:00 UTC 2017 - Mon Jul 10 09:20:00 UTC 2017[出現時間]Mon Jul 10 09:12:22 UTC 2017
Jul 10, 2017 9:12:30 AM l1j.server.server.model.L1BossSpawn spawnBoss
FINE: [MOB]npcid:45651 name:魔獸軍王‧巴蘭卡[Type]Aden[現在の周期]Mon Jul 10 09:10:00 UTC 2017 - Mon Jul 10 09:20:00 UTC 2017[出現時間]Mon Jul 10 09:18:23 UTC 2017
Jul 10, 2017 9:12:30 AM l1j.server.server.model.L1BossSpawn spawnBoss
FINE: [MOB]npcid:45652 name:地獄的黑豹[Type]Oren[現在の周期]Mon Jul 10 09:10:00 UTC 2017 - Mon Jul 10 09:20:00 UTC 2017[出現時間]Mon Jul 10 09:18:51 UTC 2017
Jul 10, 2017 9:12:30 AM l1j.server.server.model.L1BossSpawn spawnBoss
FINE: [MOB]npcid:45653 name:不死的木乃伊王[Type]Oren[現在の周期]Mon Jul 10 09:10:00 UTC 2017 - Mon Jul 10 09:20:00 UTC 2017[出現時間]Mon Jul 10 09:15:15 UTC 2017
Jul 10, 2017 9:12:30 AM l1j.server.server.model.L1BossSpawn spawnBoss
FINE: [MOB]npcid:45654 name:冷酷的艾莉絲[Type]Oren[現在の周期]Mon Jul 10 09:10:00 UTC 2017 - Mon Jul 10 09:20:00 UTC 2017[出現時間]Mon Jul 10 09:16:43 UTC 2017
Jul 10, 2017 9:12:30 AM l1j.server.server.model.L1BossSpawn spawnBoss
FINE: [MOB]npcid:45671 name:阿利歐克[Type]Aden[現在の周期]Mon Jul 10 09:10:00 UTC 2017 - Mon Jul 10 09:20:00 UTC 2017[出現時間]Mon Jul 10 09:16:25 UTC 2017
Jul 10, 2017 9:12:30 AM l1j.server.server.model.L1BossSpawn spawnBoss
FINE: [MOB]npcid:45672 name:不滅的巫妖[Type]Oren[現在の周期]Mon Jul 10 09:10:00 UTC 2017 - Mon Jul 10 09:20:00 UTC 2017[出現時間]Mon Jul 10 09:12:04 UTC 2017
Jul 10, 2017 9:12:30 AM l1j.server.server.model.L1BossSpawn spawnBoss
FINE: [MOB]npcid:45673 name:邪惡的鐮刀死神[Type]Oren[現在の周期]Mon Jul 10 09:10:00 UTC 2017 - Mon Jul 10 09:20:00 UTC 2017[出現時間]Mon Jul 10 09:10:17 UTC 2017
Jul 10, 2017 9:12:30 AM l1j.server.server.model.L1BossSpawn spawnBoss
FINE: [MOB]npcid:45674 name:死亡[Type]DK[現在の周期]Mon Jul 10 09:10:00 UTC 2017 - Mon Jul 10 09:20:00 UTC 2017[出現時間]Mon Jul 10 09:18:40 UTC 2017
Jul 10, 2017 9:12:30 AM l1j.server.server.model.L1BossSpawn spawnBoss
FINE: [MOB]npcid:45675 name:火焰之影[Type]DK[現在の周期]Mon Jul 10 09:10:00 UTC 2017 - Mon Jul 10 09:20:00 UTC 2017[出現時間]Mon Jul 10 09:10:49 UTC 2017
Jul 10, 2017 9:12:30 AM l1j.server.server.model.L1BossSpawn spawnBoss
FINE: [MOB]npcid:45680 name:反王肯恩[Type]Aden[現在の周期]Mon Jul 10 09:10:00 UTC 2017 - Mon Jul 10 09:20:00 UTC 2017[出現時間]Mon Jul 10 09:14:36 UTC 2017
Jul 10, 2017 9:12:30 AM l1j.server.server.model.L1BossSpawn spawnBoss
FINE: [MOB]npcid:45681 name:林德拜爾[Type]Dragon[現在の周期]Mon Jul 10 00:00:00 UTC 2017 - Mon Jul 10 18:00:00 UTC 2017[出現時間]Mon Jul 10 15:32:12 UTC 2017
Jul 10, 2017 9:12:30 AM l1j.server.server.model.L1BossSpawn spawnBoss
FINE: [MOB]npcid:45682 name:安塔瑞斯[Type]Dragon[現在の周期]Mon Jul 10 00:00:00 UTC 2017 - Mon Jul 10 18:00:00 UTC 2017[出現時間]Mon Jul 10 09:48:40 UTC 2017
Jul 10, 2017 9:12:30 AM l1j.server.server.model.L1BossSpawn spawnBoss
FINE: [MOB]npcid:45683 name:法利昂[Type]Dragon[現在の周期]Mon Jul 10 00:00:00 UTC 2017 - Mon Jul 10 18:00:00 UTC 2017[出現時間]Mon Jul 10 13:16:50 UTC 2017
Jul 10, 2017 9:12:30 AM l1j.server.server.model.L1BossSpawn spawnBoss
FINE: [MOB]npcid:45684 name:巴拉卡斯[Type]Dragon[現在の周期]Mon Jul 10 00:00:00 UTC 2017 - Mon Jul 10 18:00:00 UTC 2017[出現時間]Mon Jul 10 16:01:25 UTC 2017
Jul 10, 2017 9:12:30 AM l1j.server.server.model.L1BossSpawn spawnBoss
FINE: [MOB]npcid:45685 name:墮落[Type]DK[現在の周期]Mon Jul 10 09:10:00 UTC 2017 - Mon Jul 10 09:20:00 UTC 2017[出現時間]Mon Jul 10 09:16:43 UTC 2017
Jul 10, 2017 9:12:30 AM l1j.server.server.model.L1BossSpawn spawnBoss
FINE: [MOB]npcid:45711 name:高麗幼犬[Type]Unknown[現在の周期]Mon Jul 10 09:10:00 UTC 2017 - Mon Jul 10 09:20:00 UTC 2017[出現時間]Mon Jul 10 09:16:50 UTC 2017
Jul 10, 2017 9:12:30 AM l1j.server.server.model.L1BossSpawn spawnBoss
FINE: [MOB]npcid:45711 name:高麗幼犬[Type]Unknown[現在の周期]Mon Jul 10 09:10:00 UTC 2017 - Mon Jul 10 09:20:00 UTC 2017[出現時間]Mon Jul 10 09:17:38 UTC 2017
Jul 10, 2017 9:12:30 AM l1j.server.server.model.L1BossSpawn spawnBoss
FINE: [MOB]npcid:45711 name:高麗幼犬[Type]Unknown[現在の周期]Mon Jul 10 09:10:00 UTC 2017 - Mon Jul 10 09:20:00 UTC 2017[出現時間]Mon Jul 10 09:12:17 UTC 2017
Jul 10, 2017 9:12:30 AM l1j.server.server.model.L1BossSpawn spawnBoss
FINE: [MOB]npcid:45711 name:高麗幼犬[Type]Unknown[現在の周期]Mon Jul 10 09:10:00 UTC 2017 - Mon Jul 10 09:20:00 UTC 2017[出現時間]Mon Jul 10 09:10:26 UTC 2017
Jul 10, 2017 9:12:30 AM l1j.server.server.model.L1BossSpawn spawnBoss
FINE: [MOB]npcid:45711 name:高麗幼犬[Type]Unknown[現在の周期]Mon Jul 10 09:10:00 UTC 2017 - Mon Jul 10 09:20:00 UTC 2017[出現時間]Mon Jul 10 09:17:12 UTC 2017
Jul 10, 2017 9:12:30 AM l1j.server.server.model.L1BossSpawn spawnBoss
FINE: [MOB]npcid:45711 name:高麗幼犬[Type]Unknown[現在の周期]Mon Jul 10 09:10:00 UTC 2017 - Mon Jul 10 09:20:00 UTC 2017[出現時間]Mon Jul 10 09:14:20 UTC 2017
Jul 10, 2017 9:12:30 AM l1j.server.server.model.L1BossSpawn spawnBoss
FINE: [MOB]npcid:45711 name:高麗幼犬[Type]Unknown[現在の周期]Mon Jul 10 09:10:00 UTC 2017 - Mon Jul 10 09:20:00 UTC 2017[出現時間]Mon Jul 10 09:15:02 UTC 2017
Jul 10, 2017 9:12:30 AM l1j.server.server.model.L1BossSpawn spawnBoss
FINE: [MOB]npcid:45734 name:大王烏賊[Type]Unknown[現在の周期]Mon Jul 10 09:10:00 UTC 2017 - Mon Jul 10 09:20:00 UTC 2017[出現時間]Mon Jul 10 09:19:35 UTC 2017
Jul 10, 2017 9:12:30 AM l1j.server.server.model.L1BossSpawn spawnBoss
FINE: [MOB]npcid:45735 name:半魚人首領[Type]Unknown[現在の周期]Mon Jul 10 09:10:00 UTC 2017 - Mon Jul 10 09:20:00 UTC 2017[出現時間]Mon Jul 10 09:19:40 UTC 2017
Jul 10, 2017 9:12:30 AM l1j.server.server.model.L1BossSpawn spawnBoss
FINE: [MOB]npcid:45752 name:炎魔[Type]DK[現在の周期]Mon Jul 10 09:10:00 UTC 2017 - Mon Jul 10 09:20:00 UTC 2017[出現時間]Mon Jul 10 09:11:50 UTC 2017
Jul 10, 2017 9:12:30 AM l1j.server.server.model.L1BossSpawn spawnBoss
FINE: [MOB]npcid:45772 name:污濁 妖魔戰士[Type]Unknown[現在の周期]Mon Jul 10 09:10:00 UTC 2017 - Mon Jul 10 09:20:00 UTC 2017[出現時間]Mon Jul 10 09:19:31 UTC 2017
Jul 10, 2017 9:12:30 AM l1j.server.server.model.L1BossSpawn spawnBoss
FINE: [MOB]npcid:45795 name:樹精[Type]Unknown[現在の周期]Mon Jul 10 09:10:00 UTC 2017 - Mon Jul 10 09:20:00 UTC 2017[出現時間]Mon Jul 10 09:18:56 UTC 2017
Jul 10, 2017 9:12:30 AM l1j.server.server.model.L1BossSpawn spawnBoss
FINE: [MOB]npcid:45801 name:瑪依奴夏門的鑽石高崙[Type]Unknown[現在の周期]Mon Jul 10 09:10:00 UTC 2017 - Mon Jul 10 09:20:00 UTC 2017[出現時間]Mon Jul 10 09:10:50 UTC 2017
Jul 10, 2017 9:12:30 AM l1j.server.server.model.L1BossSpawn spawnBoss
FINE: [MOB]npcid:45802 name:瑪依奴夏門[Type]Unknown[現在の周期]Mon Jul 10 09:10:00 UTC 2017 - Mon Jul 10 09:20:00 UTC 2017[出現時間]Mon Jul 10 09:15:20 UTC 2017
Jul 10, 2017 9:12:30 AM l1j.server.server.model.L1BossSpawn spawnBoss
FINE: [MOB]npcid:45829 name:巴貝多[Type]Unknown[現在の周期]Mon Jul 10 09:10:00 UTC 2017 - Mon Jul 10 09:20:00 UTC 2017[出現時間]Mon Jul 10 09:10:25 UTC 2017
Jul 10, 2017 9:12:30 AM l1j.server.server.model.L1BossSpawn spawnBoss
FINE: [MOB]npcid:81081 name:法利昂的信奉者[Type]Caspa[現在の周期]Mon Jul 10 09:10:00 UTC 2017 - Mon Jul 10 09:20:00 UTC 2017[出現時間]Mon Jul 10 09:12:57 UTC 2017
Jul 10, 2017 9:12:30 AM l1j.server.server.model.L1BossSpawn spawnBoss
FINE: [MOB]npcid:81081 name:法利昂的信奉者[Type]Caspa[現在の周期]Mon Jul 10 09:10:00 UTC 2017 - Mon Jul 10 09:20:00 UTC 2017[出現時間]Mon Jul 10 09:14:52 UTC 2017
Jul 10, 2017 9:12:30 AM l1j.server.server.model.L1BossSpawn spawnBoss
FINE: [MOB]npcid:45548 name:豪勢[Type]Oren[現在の周期]Mon Jul 10 09:10:00 UTC 2017 - Mon Jul 10 09:20:00 UTC 2017[出現時間]Mon Jul 10 09:12:56 UTC 2017
Jul 10, 2017 9:12:30 AM l1j.server.server.model.L1BossSpawn spawnBoss
FINE: [MOB]npcid:45585 name:暗殺團長．布雷哲[Type]Unknown[現在の周期]Mon Jul 10 09:10:00 UTC 2017 - Mon Jul 10 09:20:00 UTC 2017[出現時間]Mon Jul 10 09:18:37 UTC 2017
Jul 10, 2017 9:12:30 AM l1j.server.server.model.L1BossSpawn spawnBoss
FINE: [MOB]npcid:45574 name:親衛隊長．凱特[Type]Unknown[現在の周期]Mon Jul 10 09:10:00 UTC 2017 - Mon Jul 10 09:20:00 UTC 2017[出現時間]Mon Jul 10 09:17:27 UTC 2017
Jul 10, 2017 9:12:30 AM l1j.server.server.model.L1BossSpawn spawnBoss
FINE: [MOB]npcid:45648 name:暗殺軍王．史雷佛[Type]Unknown[現在の周期]Mon Jul 10 09:10:00 UTC 2017 - Mon Jul 10 09:20:00 UTC 2017[出現時間]Mon Jul 10 09:12:01 UTC 2017
Jul 10, 2017 9:12:30 AM l1j.server.server.model.L1BossSpawn spawnBoss
FINE: [MOB]npcid:45577 name:突擊旅長．闇黑劍士[Type]Unknown[現在の周期]Mon Jul 10 09:10:00 UTC 2017 - Mon Jul 10 09:20:00 UTC 2017[出現時間]Mon Jul 10 09:12:55 UTC 2017
Jul 10, 2017 9:12:30 AM l1j.server.server.model.L1BossSpawn spawnBoss
FINE: [MOB]npcid:45844 name:魔獸軍王．巴蘭卡[Type]Unknown[現在の周期]Mon Jul 10 09:10:00 UTC 2017 - Mon Jul 10 09:20:00 UTC 2017[出現時間]Mon Jul 10 09:11:39 UTC 2017
Jul 10, 2017 9:12:30 AM l1j.server.server.model.L1BossSpawn spawnBoss
FINE: [MOB]npcid:45588 name:魔獸師長．辛克萊[Type]Unknown[現在の周期]Mon Jul 10 09:10:00 UTC 2017 - Mon Jul 10 09:20:00 UTC 2017[出現時間]Mon Jul 10 09:10:21 UTC 2017
Jul 10, 2017 9:12:30 AM l1j.server.server.model.L1BossSpawn spawnBoss
FINE: [MOB]npcid:45607 name:魔獸團長．凱巴勒[Type]Unknown[現在の周期]Mon Jul 10 09:10:00 UTC 2017 - Mon Jul 10 09:20:00 UTC 2017[出現時間]Mon Jul 10 09:17:20 UTC 2017
Jul 10, 2017 9:12:30 AM l1j.server.server.model.L1BossSpawn spawnBoss
FINE: [MOB]npcid:45612 name:神官長．邦妮[Type]Unknown[現在の周期]Mon Jul 10 09:10:00 UTC 2017 - Mon Jul 10 09:20:00 UTC 2017[出現時間]Mon Jul 10 09:18:43 UTC 2017
Jul 10, 2017 9:12:30 AM l1j.server.server.model.L1BossSpawn spawnBoss
FINE: [MOB]npcid:45602 name:魔法團長．卡勒米爾[Type]Unknown[現在の周期]Mon Jul 10 09:10:00 UTC 2017 - Mon Jul 10 09:20:00 UTC 2017[出現時間]Mon Jul 10 09:14:38 UTC 2017
Jul 10, 2017 9:12:30 AM l1j.server.server.model.L1BossSpawn spawnBoss
FINE: [MOB]npcid:45863 name:法令軍王．蕾雅[Type]Unknown[現在の周期]Mon Jul 10 09:10:00 UTC 2017 - Mon Jul 10 09:20:00 UTC 2017[出現時間]Mon Jul 10 09:16:21 UTC 2017
Jul 10, 2017 9:12:30 AM l1j.server.server.model.L1BossSpawn spawnBoss
FINE: [MOB]npcid:45608 name:傭兵隊長．麥帕斯托[Type]Unknown[現在の周期]Mon Jul 10 09:10:00 UTC 2017 - Mon Jul 10 09:20:00 UTC 2017[出現時間]Mon Jul 10 09:12:55 UTC 2017
Jul 10, 2017 9:12:30 AM l1j.server.server.model.L1BossSpawn spawnBoss
FINE: [MOB]npcid:45615 name:冥法團長．可利波斯[Type]Unknown[現在の周期]Mon Jul 10 09:10:00 UTC 2017 - Mon Jul 10 09:20:00 UTC 2017[出現時間]Mon Jul 10 09:17:26 UTC 2017
Jul 10, 2017 9:12:30 AM l1j.server.server.model.L1BossSpawn spawnBoss
FINE: [MOB]npcid:45676 name:冥法軍王．海露拜[Type]Unknown[現在の周期]Mon Jul 10 09:10:00 UTC 2017 - Mon Jul 10 09:20:00 UTC 2017[出現時間]Mon Jul 10 09:19:48 UTC 2017
Jul 10, 2017 9:12:30 AM l1j.server.server.model.L1BossSpawn spawnBoss
FINE: [MOB]npcid:46024 name:伯爵的親衛隊[Type]Unknown[現在の周期]Mon Jul 10 09:10:00 UTC 2017 - Mon Jul 10 09:20:00 UTC 2017[出現時間]Mon Jul 10 09:18:59 UTC 2017
Jul 10, 2017 9:12:30 AM l1j.server.server.model.L1BossSpawn spawnBoss
FINE: [MOB]npcid:46025 name:塔洛斯伯爵[Type]Unknown[現在の周期]Mon Jul 10 09:10:00 UTC 2017 - Mon Jul 10 09:20:00 UTC 2017[出現時間]Mon Jul 10 09:15:56 UTC 2017
Jul 10, 2017 9:12:30 AM l1j.server.server.model.L1BossSpawn spawnBoss
FINE: [MOB]npcid:46026 name:曼孟[Type]Unknown[現在の周期]Mon Jul 10 09:10:00 UTC 2017 - Mon Jul 10 09:20:00 UTC 2017[出現時間]Mon Jul 10 09:13:43 UTC 2017
Jul 10, 2017 9:12:30 AM l1j.server.server.model.L1BossSpawn spawnBoss
FINE: [MOB]npcid:46037 name:瑪雅[Type]Unknown[現在の周期]Mon Jul 10 09:10:00 UTC 2017 - Mon Jul 10 09:20:00 UTC 2017[出現時間]Mon Jul 10 09:19:25 UTC 2017
Jul 10, 2017 9:12:30 AM l1j.server.server.model.L1BossSpawn spawnBoss
FINE: [MOB]npcid:45935 name:受詛咒的 梅杜莎[Type]1Drake[現在の周期]Mon Jul 10 09:10:00 UTC 2017 - Mon Jul 10 09:20:00 UTC 2017[出現時間]Mon Jul 10 09:17:37 UTC 2017
Jul 10, 2017 9:12:30 AM l1j.server.server.model.L1BossSpawn spawnBoss
FINE: [MOB]npcid:45942 name:受詛咒的 水精靈王[Type]1Drake[現在の周期]Mon Jul 10 09:10:00 UTC 2017 - Mon Jul 10 09:20:00 UTC 2017[出現時間]Mon Jul 10 09:11:42 UTC 2017
Jul 10, 2017 9:12:30 AM l1j.server.server.model.L1BossSpawn spawnBoss
FINE: [MOB]npcid:45941 name:受詛咒的巫女莎爾[Type]1Drake[現在の周期]Mon Jul 10 09:10:00 UTC 2017 - Mon Jul 10 09:20:00 UTC 2017[出現時間]Mon Jul 10 09:14:13 UTC 2017
Jul 10, 2017 9:12:30 AM l1j.server.server.model.L1BossSpawn spawnBoss
FINE: [MOB]npcid:45931 name:水之精靈[Type]1Drake[現在の周期]Mon Jul 10 09:10:00 UTC 2017 - Mon Jul 10 09:20:00 UTC 2017[出現時間]Mon Jul 10 09:17:59 UTC 2017
Jul 10, 2017 9:12:30 AM l1j.server.server.model.L1BossSpawn spawnBoss
FINE: [MOB]npcid:45943 name:卡普[Type]1Drake[現在の周期]Mon Jul 10 09:10:00 UTC 2017 - Mon Jul 10 09:20:00 UTC 2017[出現時間]Mon Jul 10 09:15:05 UTC 2017
Jul 10, 2017 9:12:30 AM l1j.server.server.model.L1BossSpawn spawnBoss
FINE: [MOB]npcid:45944 name:巨大蜈蚣[Type]1Drake[現在の周期]Mon Jul 10 09:10:00 UTC 2017 - Mon Jul 10 09:20:00 UTC 2017[出現時間]Mon Jul 10 09:15:27 UTC 2017
Jul 10, 2017 9:12:30 AM l1j.server.server.model.L1BossSpawn spawnBoss
FINE: [MOB]npcid:45955 name:長老．琪娜[Type]Unknown[現在の周期]Mon Jul 10 09:10:00 UTC 2017 - Mon Jul 10 09:20:00 UTC 2017[出現時間]Mon Jul 10 09:15:20 UTC 2017
Jul 10, 2017 9:12:30 AM l1j.server.server.model.L1BossSpawn spawnBoss
FINE: [MOB]npcid:45956 name:長老．巴塔斯[Type]Unknown[現在の周期]Mon Jul 10 09:10:00 UTC 2017 - Mon Jul 10 09:20:00 UTC 2017[出現時間]Mon Jul 10 09:18:30 UTC 2017
Jul 10, 2017 9:12:30 AM l1j.server.server.model.L1BossSpawn spawnBoss
FINE: [MOB]npcid:45957 name:長老．巴洛斯[Type]Unknown[現在の周期]Mon Jul 10 09:10:00 UTC 2017 - Mon Jul 10 09:20:00 UTC 2017[出現時間]Mon Jul 10 09:12:31 UTC 2017
Jul 10, 2017 9:12:30 AM l1j.server.server.model.L1BossSpawn spawnBoss
FINE: [MOB]npcid:45958 name:長老．安迪斯[Type]Unknown[現在の周期]Mon Jul 10 09:10:00 UTC 2017 - Mon Jul 10 09:20:00 UTC 2017[出現時間]Mon Jul 10 09:15:47 UTC 2017
Jul 10, 2017 9:12:30 AM l1j.server.server.model.L1BossSpawn spawnBoss
FINE: [MOB]npcid:45959 name:長老．艾迪爾[Type]Unknown[現在の周期]Mon Jul 10 09:10:00 UTC 2017 - Mon Jul 10 09:20:00 UTC 2017[出現時間]Mon Jul 10 09:17:35 UTC 2017
Jul 10, 2017 9:12:30 AM l1j.server.server.model.L1BossSpawn spawnBoss
FINE: [MOB]npcid:45960 name:長老．泰瑪斯[Type]Unknown[現在の周期]Mon Jul 10 09:10:00 UTC 2017 - Mon Jul 10 09:20:00 UTC 2017[出現時間]Mon Jul 10 09:17:04 UTC 2017
Jul 10, 2017 9:12:30 AM l1j.server.server.model.L1BossSpawn spawnBoss
FINE: [MOB]npcid:45961 name:長老．拉曼斯[Type]Unknown[現在の周期]Mon Jul 10 09:10:00 UTC 2017 - Mon Jul 10 09:20:00 UTC 2017[出現時間]Mon Jul 10 09:19:44 UTC 2017
Jul 10, 2017 9:12:30 AM l1j.server.server.model.L1BossSpawn spawnBoss
FINE: [MOB]npcid:45962 name:長老．巴陸德[Type]Unknown[現在の周期]Mon Jul 10 09:10:00 UTC 2017 - Mon Jul 10 09:20:00 UTC 2017[出現時間]Mon Jul 10 09:12:39 UTC 2017
Jul 10, 2017 9:12:30 AM l1j.server.server.model.L1BossSpawn spawnBoss
FINE: [MOB]npcid:45963 name:副神官．卡山德拉[Type]Unknown[現在の周期]Mon Jul 10 09:10:00 UTC 2017 - Mon Jul 10 09:20:00 UTC 2017[出現時間]Mon Jul 10 09:16:07 UTC 2017
Jul 10, 2017 9:12:30 AM l1j.server.server.model.L1BossSpawn spawnBoss
FINE: [MOB]npcid:46124 name:底比斯 阿努比斯[Type]etc1[現在の周期]Mon Jul 10 09:10:00 UTC 2017 - Mon Jul 10 09:20:00 UTC 2017[出現時間]Mon Jul 10 09:15:25 UTC 2017
Jul 10, 2017 9:12:30 AM l1j.server.server.model.L1BossSpawn spawnBoss
FINE: [MOB]npcid:46123 name:底比斯 賀洛斯[Type]etc1[現在の周期]Mon Jul 10 09:10:00 UTC 2017 - Mon Jul 10 09:20:00 UTC 2017[出現時間]Mon Jul 10 09:14:36 UTC 2017
Jul 10, 2017 9:12:30 AM l1j.server.server.model.L1BossSpawn spawnBoss
FINE: [MOB]npcid:46141 name:冰之女王[Type]Oren[現在の周期]Mon Jul 10 09:10:00 UTC 2017 - Mon Jul 10 09:20:00 UTC 2017[出現時間]Mon Jul 10 09:17:51 UTC 2017
Jul 10, 2017 9:12:30 AM l1j.server.server.model.L1BossSpawn spawnBoss
FINE: [MOB]npcid:46142 name:冰魔[Type]Oren[現在の周期]Mon Jul 10 09:10:00 UTC 2017 - Mon Jul 10 09:20:00 UTC 2017[出現時間]Mon Jul 10 09:15:34 UTC 2017
Jul 10, 2017 9:12:30 AM l1j.server.server.model.L1BossSpawn spawnBoss
FINE: [MOB]npcid:81321 name:精銳 黑騎士隊長[Type]Night[現在の周期]Mon Jul 10 09:10:00 UTC 2017 - Mon Jul 10 09:20:00 UTC 2017[出現時間]Mon Jul 10 09:18:19 UTC 2017
Jul 10, 2017 9:12:30 AM l1j.server.server.datatables.BossSpawnTable fillSpawnTable
FINE: 総ボスモンスター数 131匹
Jul 10, 2017 9:12:30 AM l1j.server.server.datatables.ResolventTable loadMapsFromDatabase
CONFIG: resolvent 281
Jul 10, 2017 12:01:36 PM l1j.server.server.ClientThread run
INFO: (203.73.34.141) 連結到伺服器。
Jul 10, 2017 12:01:39 PM l1j.server.server.ClientThread run
FINE: Server thread[C] stopped
Jul 10, 2017 12:01:39 PM l1j.server.server.ClientThread run
INFO: (null:203.73.34.141)連線終止。
Jul 10, 2017 12:02:01 PM l1j.server.server.ClientThread run
INFO: (203.73.34.141) 連結到伺服器。
Jul 10, 2017 12:02:03 PM l1j.server.server.Account load
FINE: account exists
Jul 10, 2017 12:02:03 PM l1j.server.server.Account updateLastActive
FINE: update lastactive for lgdlcoco
Jul 10, 2017 12:02:03 PM l1j.server.server.Account load
FINE: account exists
Jul 10, 2017 12:02:11 PM l1j.server.server.Account load
FINE: account exists
Jul 10, 2017 12:02:11 PM l1j.server.server.clientpackets.C_LoginToServer <init>
INFO: 角色登入到伺服器中: char=幻影狂刀 account=lgdlcoco host=203.73.34.141
Jul 10, 2017 12:03:10 PM l1j.server.server.model.L1BossSpawn spawnBoss
FINE: [MOB]npcid:45614 name:巨蟻女皇[Type]DK[現在の周期]Mon Jul 10 12:00:00 UTC 2017 - Mon Jul 10 12:10:00 UTC 2017[出現時間]Mon Jul 10 12:00:00 UTC 2017
Jul 10, 2017 12:04:09 PM l1j.server.server.model.L1BossSpawn spawnBoss
FINE: [MOB]npcid:45614 name:巨蟻女皇[Type]DK[現在の周期]Mon Jul 10 12:10:00 UTC 2017 - Mon Jul 10 12:20:00 UTC 2017[出現時間]Mon Jul 10 12:12:31 UTC 2017
Jul 10, 2017 12:21:09 PM l1j.server.server.model.L1BossSpawn spawnBoss
FINE: [MOB]npcid:45614 name:巨蟻女皇[Type]DK[現在の周期]Mon Jul 10 12:20:00 UTC 2017 - Mon Jul 10 12:30:00 UTC 2017[出現時間]Mon Jul 10 12:20:09 UTC 2017
Jul 10, 2017 12:22:07 PM l1j.server.server.model.L1BossSpawn spawnBoss
FINE: [MOB]npcid:45614 name:巨蟻女皇[Type]DK[現在の周期]Mon Jul 10 12:30:00 UTC 2017 - Mon Jul 10 12:40:00 UTC 2017[出現時間]Mon Jul 10 12:33:26 UTC 2017
Jul 10, 2017 12:31:38 PM l1j.server.server.model.L1BossSpawn spawnBoss
FINE: [MOB]npcid:45338 name:巨大鱷魚[Type]Caspa[現在の周期]Mon Jul 10 12:30:00 UTC 2017 - Mon Jul 10 12:40:00 UTC 2017[出現時間]Mon Jul 10 12:33:35 UTC 2017
Jul 10, 2017 12:35:40 PM l1j.server.server.model.L1BossSpawn spawnBoss
FINE: [MOB]npcid:45614 name:巨蟻女皇[Type]DK[現在の周期]Mon Jul 10 12:40:00 UTC 2017 - Mon Jul 10 12:50:00 UTC 2017[出現時間]Mon Jul 10 12:44:54 UTC 2017
Jul 10, 2017 12:40:58 PM l1j.server.server.ClientThread run
INFO: (118.150.208.109) 連結到伺服器。
Jul 10, 2017 12:41:00 PM l1j.server.server.ClientThread run
FINE: Server thread[C] stopped
Jul 10, 2017 12:41:00 PM l1j.server.server.ClientThread run
INFO: (null:118.150.208.109)連線終止。
Jul 10, 2017 12:41:13 PM l1j.server.server.ClientThread run
INFO: (118.150.208.109) 連結到伺服器。
Jul 10, 2017 12:41:18 PM l1j.server.server.Account load
FINE: account exists
Jul 10, 2017 12:41:18 PM l1j.server.server.Account updateLastActive
FINE: update lastactive for eric
Jul 10, 2017 12:41:18 PM l1j.server.server.Account load
FINE: account exists
Jul 10, 2017 12:41:45 PM l1j.server.server.Account load
FINE: account exists
Jul 10, 2017 12:41:45 PM l1j.server.server.BadNamesList <init>
CONFIG: loaded 0 bad names
Jul 10, 2017 12:41:45 PM l1j.server.server.clientpackets.C_CreateChar <init>
FINE: charname: 爆哥 classId: 0
Jul 10, 2017 12:41:48 PM l1j.server.server.Account load
FINE: account exists
Jul 10, 2017 12:41:48 PM l1j.server.server.clientpackets.C_LoginToServer <init>
INFO: 角色登入到伺服器中: char=爆哥 account=eric host=118.150.208.109
Jul 10, 2017 12:52:23 PM l1j.server.server.model.L1BossSpawn spawnBoss
FINE: [MOB]npcid:45614 name:巨蟻女皇[Type]DK[現在の周期]Mon Jul 10 12:50:00 UTC 2017 - Mon Jul 10 13:00:00 UTC 2017[出現時間]Mon Jul 10 12:50:51 UTC 2017
Jul 10, 2017 12:53:21 PM l1j.server.server.model.L1BossSpawn spawnBoss
FINE: [MOB]npcid:45614 name:巨蟻女皇[Type]DK[現在の周期]Mon Jul 10 13:00:00 UTC 2017 - Mon Jul 10 13:10:00 UTC 2017[出現時間]Mon Jul 10 13:03:43 UTC 2017
Jul 10, 2017 1:04:42 PM l1j.server.server.HomeTownTimeController dailyProc
INFO: 城鎮系統：開始處理每日事項
Jul 10, 2017 1:15:07 PM l1j.server.server.model.L1BossSpawn spawnBoss
FINE: [MOB]npcid:45614 name:巨蟻女皇[Type]DK[現在の周期]Mon Jul 10 13:10:00 UTC 2017 - Mon Jul 10 13:20:00 UTC 2017[出現時間]Mon Jul 10 13:12:53 UTC 2017
Jul 10, 2017 1:16:00 PM l1j.server.server.model.L1BossSpawn spawnBoss
FINE: [MOB]npcid:45614 name:巨蟻女皇[Type]DK[現在の周期]Mon Jul 10 13:20:00 UTC 2017 - Mon Jul 10 13:30:00 UTC 2017[出現時間]Mon Jul 10 13:24:23 UTC 2017
Jul 10, 2017 1:23:15 PM l1j.server.server.model.L1BossSpawn spawnBoss
FINE: [MOB]npcid:45654 name:冷酷的艾莉絲[Type]Oren[現在の周期]Mon Jul 10 13:20:00 UTC 2017 - Mon Jul 10 13:30:00 UTC 2017[出現時間]Mon Jul 10 13:25:02 UTC 2017
Jul 10, 2017 1:29:16 PM l1j.server.server.ClientThread run
INFO: (114.24.18.177) 連結到伺服器。
Jul 10, 2017 1:29:18 PM l1j.server.server.ClientThread run
FINE: Server thread[C] stopped
Jul 10, 2017 1:29:18 PM l1j.server.server.ClientThread run
INFO: (null:114.24.18.177)連線終止。
Jul 10, 2017 1:29:29 PM l1j.server.server.ClientThread run
INFO: (114.24.18.177) 連結到伺服器。
Jul 10, 2017 1:29:31 PM l1j.server.server.Account load
FINE: account exists
Jul 10, 2017 1:29:31 PM l1j.server.server.Account updateLastActive
FINE: update lastactive for gm
Jul 10, 2017 1:29:31 PM l1j.server.server.Account load
FINE: account exists
Jul 10, 2017 1:29:31 PM l1j.server.server.model.L1BossSpawn spawnBoss
FINE: [MOB]npcid:45614 name:巨蟻女皇[Type]DK[現在の周期]Mon Jul 10 13:30:00 UTC 2017 - Mon Jul 10 13:40:00 UTC 2017[出現時間]Mon Jul 10 13:36:23 UTC 2017
Jul 10, 2017 1:29:39 PM l1j.server.server.Account load
FINE: account exists
Jul 10, 2017 1:29:39 PM l1j.server.server.clientpackets.C_LoginToServer <init>
INFO: 角色登入到伺服器中: char=GM account=gm host=114.24.18.177
Jul 10, 2017 1:29:41 PM l1j.server.server.GMCommands executeDatabaseCommand
INFO: GM使用 .who 的指令。
Jul 10, 2017 1:30:41 PM l1j.server.server.GMCommands executeDatabaseCommand
INFO: GM使用 .death 幻影狂刀的指令。
Jul 10, 2017 1:31:08 PM l1j.server.server.GMCommands executeDatabaseCommand
INFO: GM使用 .death 爆哥的指令。
Jul 10, 2017 1:32:10 PM l1j.server.server.Account load
FINE: account exists
Jul 10, 2017 1:32:10 PM l1j.server.server.ClientThread run
FINE: Server thread[C] stopped
Jul 10, 2017 1:32:10 PM l1j.server.server.ClientThread run
INFO: (gm:114.24.18.177)連線終止。
Jul 10, 2017 1:40:09 PM l1j.server.server.model.L1BossSpawn spawnBoss
FINE: [MOB]npcid:45614 name:巨蟻女皇[Type]DK[現在の周期]Mon Jul 10 13:40:00 UTC 2017 - Mon Jul 10 13:50:00 UTC 2017[出現時間]Mon Jul 10 13:41:59 UTC 2017
Jul 10, 2017 1:48:21 PM l1j.server.server.model.L1BossSpawn spawnBoss
FINE: [MOB]npcid:45618 name:闇黑的騎士范德[Type]Oren[現在の周期]Mon Jul 10 13:40:00 UTC 2017 - Mon Jul 10 13:50:00 UTC 2017[出現時間]Mon Jul 10 13:45:36 UTC 2017
Jul 10, 2017 1:50:19 PM l1j.server.server.ClientThread run
INFO: (182.235.89.47) 連結到伺服器。
Jul 10, 2017 1:50:21 PM l1j.server.server.ClientThread run
FINE: Server thread[C] stopped
Jul 10, 2017 1:50:21 PM l1j.server.server.ClientThread run
INFO: (null:182.235.89.47)連線終止。
Jul 10, 2017 1:50:32 PM l1j.server.server.ClientThread run
INFO: (182.235.89.47) 連結到伺服器。
Jul 10, 2017 1:50:40 PM l1j.server.server.Account load
FINE: account exists
Jul 10, 2017 1:50:40 PM l1j.server.server.Account updateLastActive
FINE: update lastactive for will
Jul 10, 2017 1:50:40 PM l1j.server.server.Account load
FINE: account exists
Jul 10, 2017 1:51:32 PM l1j.server.server.Account load
FINE: account exists
Jul 10, 2017 1:51:32 PM l1j.server.server.clientpackets.C_LoginToServer <init>
INFO: 角色登入到伺服器中: char=何抓抓 account=will host=182.235.89.47
Jul 10, 2017 1:52:58 PM l1j.server.server.clientpackets.C_NewCharSelect <init>
FINE: Disconnect from: 爆哥
Jul 10, 2017 1:52:58 PM l1j.server.server.Account load
FINE: account exists
Jul 10, 2017 1:53:13 PM l1j.server.server.Account load
FINE: account exists
Jul 10, 2017 1:53:13 PM l1j.server.server.clientpackets.C_LoginToServer <init>
INFO: 角色登入到伺服器中: char=爆哥 account=eric host=118.150.208.109
Jul 10, 2017 2:00:37 PM l1j.server.server.Account load
FINE: account exists
Jul 10, 2017 2:00:37 PM l1j.server.server.ClientThread run
FINE: Server thread[C] stopped
Jul 10, 2017 2:00:37 PM l1j.server.server.ClientThread run
INFO: (eric:118.150.208.109)連線終止。
Jul 10, 2017 2:12:01 PM l1j.server.server.ClientThread run
INFO: (1.161.235.161) 連結到伺服器。
Jul 10, 2017 2:12:03 PM l1j.server.server.ClientThread run
FINE: Server thread[C] stopped
Jul 10, 2017 2:12:03 PM l1j.server.server.ClientThread run
INFO: (null:1.161.235.161)連線終止。
Jul 10, 2017 2:12:21 PM l1j.server.server.ClientThread run
INFO: (1.161.235.161) 連結到伺服器。
Jul 10, 2017 2:12:30 PM l1j.server.server.Account load
FINE: account exists
Jul 10, 2017 2:12:30 PM l1j.server.server.Account updateLastActive
FINE: update lastactive for lendice
Jul 10, 2017 2:12:30 PM l1j.server.server.Account load
FINE: account exists
Jul 10, 2017 2:12:40 PM l1j.server.server.Account load
FINE: account exists
Jul 10, 2017 2:12:40 PM l1j.server.server.clientpackets.C_LoginToServer <init>
INFO: 角色登入到伺服器中: char=葳王 account=lendice host=1.161.235.161
Jul 10, 2017 2:14:06 PM l1j.server.server.clientpackets.C_NewCharSelect <init>
FINE: Disconnect from: 葳王
Jul 10, 2017 2:14:06 PM l1j.server.server.Account load
FINE: account exists
Jul 10, 2017 2:14:08 PM l1j.server.server.Account load
FINE: account exists
Jul 10, 2017 2:14:08 PM l1j.server.server.clientpackets.C_LoginToServer <init>
INFO: 角色登入到伺服器中: char=葳哥 account=lendice host=1.161.235.161
Jul 10, 2017 2:16:41 PM l1j.server.server.model.L1BossSpawn spawnBoss
FINE: [MOB]npcid:45614 name:巨蟻女皇[Type]DK[現在の周期]Mon Jul 10 14:10:00 UTC 2017 - Mon Jul 10 14:20:00 UTC 2017[出現時間]Mon Jul 10 14:14:38 UTC 2017
Jul 10, 2017 2:17:37 PM l1j.server.server.model.L1BossSpawn spawnBoss
FINE: [MOB]npcid:45614 name:巨蟻女皇[Type]DK[現在の周期]Mon Jul 10 14:20:00 UTC 2017 - Mon Jul 10 14:30:00 UTC 2017[出現時間]Mon Jul 10 14:24:45 UTC 2017
Jul 10, 2017 2:26:39 PM l1j.server.server.model.L1BossSpawn spawnBoss
FINE: [MOB]npcid:45614 name:巨蟻女皇[Type]DK[現在の周期]Mon Jul 10 14:30:00 UTC 2017 - Mon Jul 10 14:40:00 UTC 2017[出現時間]Mon Jul 10 14:33:40 UTC 2017
Jul 10, 2017 2:35:11 PM l1j.server.server.model.L1BossSpawn spawnBoss
FINE: [MOB]npcid:45614 name:巨蟻女皇[Type]DK[現在の周期]Mon Jul 10 14:40:00 UTC 2017 - Mon Jul 10 14:50:00 UTC 2017[出現時間]Mon Jul 10 14:45:47 UTC 2017
Jul 10, 2017 2:37:47 PM l1j.server.server.model.L1BossSpawn spawnBoss
FINE: [MOB]npcid:45610 name:古代巨人[Type]Aden[現在の周期]Mon Jul 10 14:30:00 UTC 2017 - Mon Jul 10 14:40:00 UTC 2017[出現時間]Mon Jul 10 14:31:48 UTC 2017
Jul 10, 2017 2:38:23 PM l1j.server.server.model.L1BossSpawn spawnBoss
FINE: [MOB]npcid:45610 name:古代巨人[Type]Aden[現在の周期]Mon Jul 10 14:40:00 UTC 2017 - Mon Jul 10 14:50:00 UTC 2017[出現時間]Mon Jul 10 14:49:59 UTC 2017
Jul 10, 2017 2:46:54 PM l1j.server.server.model.L1BossSpawn spawnBoss
FINE: [MOB]npcid:45683 name:法利昂[Type]Dragon[現在の周期]Mon Jul 10 18:00:00 UTC 2017 - Tue Jul 11 12:00:00 UTC 2017[出現時間]Tue Jul 11 00:09:04 UTC 2017
Jul 10, 2017 2:53:28 PM l1j.server.server.model.L1BossSpawn spawnBoss
FINE: [MOB]npcid:45614 name:巨蟻女皇[Type]DK[現在の周期]Mon Jul 10 14:50:00 UTC 2017 - Mon Jul 10 15:00:00 UTC 2017[出現時間]Mon Jul 10 14:53:30 UTC 2017
Jul 10, 2017 2:54:37 PM l1j.server.server.model.L1BossSpawn spawnBoss
FINE: [MOB]npcid:45614 name:巨蟻女皇[Type]DK[現在の周期]Mon Jul 10 15:00:00 UTC 2017 - Mon Jul 10 15:10:00 UTC 2017[出現時間]Mon Jul 10 15:04:00 UTC 2017
Jul 10, 2017 2:57:03 PM l1j.server.server.Account load
FINE: account exists
Jul 10, 2017 2:57:03 PM l1j.server.server.utils.StreamUtil close
SEVERE: Broken pipe (Write failed)
java.net.SocketException: Broken pipe (Write failed)
	at java.net.SocketOutputStream.socketWrite0(Native Method)
	at java.net.SocketOutputStream.socketWrite(SocketOutputStream.java:111)
	at java.net.SocketOutputStream.write(SocketOutputStream.java:155)
	at java.io.BufferedOutputStream.flushBuffer(BufferedOutputStream.java:82)
	at java.io.BufferedOutputStream.flush(BufferedOutputStream.java:140)
	at java.io.FilterOutputStream.close(FilterOutputStream.java:158)
	at l1j.server.server.utils.StreamUtil.close(StreamUtil.java:30)
	at l1j.server.server.ClientThread.run(ClientThread.java:334)
	at java.util.concurrent.ThreadPoolExecutor.runWorker(ThreadPoolExecutor.java:1142)
	at java.util.concurrent.ThreadPoolExecutor$Worker.run(ThreadPoolExecutor.java:617)
	at java.lang.Thread.run(Thread.java:748)

Jul 10, 2017 2:57:03 PM l1j.server.server.ClientThread run
FINE: Server thread[C] stopped
Jul 10, 2017 2:57:03 PM l1j.server.server.ClientThread run
INFO: (lendice:1.161.235.161)連線終止。
Jul 10, 2017 2:59:31 PM l1j.server.server.Account load
FINE: account exists
Jul 10, 2017 2:59:31 PM l1j.server.server.utils.StreamUtil close
SEVERE: Broken pipe (Write failed)
java.net.SocketException: Broken pipe (Write failed)
	at java.net.SocketOutputStream.socketWrite0(Native Method)
	at java.net.SocketOutputStream.socketWrite(SocketOutputStream.java:111)
	at java.net.SocketOutputStream.write(SocketOutputStream.java:155)
	at java.io.BufferedOutputStream.flushBuffer(BufferedOutputStream.java:82)
	at java.io.BufferedOutputStream.flush(BufferedOutputStream.java:140)
	at java.io.FilterOutputStream.close(FilterOutputStream.java:158)
	at l1j.server.server.utils.StreamUtil.close(StreamUtil.java:30)
	at l1j.server.server.ClientThread.run(ClientThread.java:334)
	at java.util.concurrent.ThreadPoolExecutor.runWorker(ThreadPoolExecutor.java:1142)
	at java.util.concurrent.ThreadPoolExecutor$Worker.run(ThreadPoolExecutor.java:617)
	at java.lang.Thread.run(Thread.java:748)

Jul 10, 2017 2:59:31 PM l1j.server.server.ClientThread run
FINE: Server thread[C] stopped
Jul 10, 2017 2:59:31 PM l1j.server.server.ClientThread run
INFO: (lgdlcoco:203.73.34.141)連線終止。
Jul 10, 2017 2:59:38 PM l1j.server.server.ClientThread run
INFO: (203.73.34.141) 連結到伺服器。
Jul 10, 2017 2:59:40 PM l1j.server.server.ClientThread run
FINE: Server thread[C] stopped
Jul 10, 2017 2:59:40 PM l1j.server.server.ClientThread run
INFO: (null:203.73.34.141)連線終止。
Jul 10, 2017 2:59:57 PM l1j.server.server.ClientThread run
INFO: (203.73.34.141) 連結到伺服器。
Jul 10, 2017 2:59:58 PM l1j.server.server.Account load
FINE: account exists
Jul 10, 2017 2:59:59 PM l1j.server.server.Account updateLastActive
FINE: update lastactive for lgdlcoco
Jul 10, 2017 2:59:59 PM l1j.server.server.Account load
FINE: account exists
Jul 10, 2017 3:00:04 PM l1j.server.server.Account load
FINE: account exists
Jul 10, 2017 3:00:04 PM l1j.server.server.clientpackets.C_LoginToServer <init>
INFO: 角色登入到伺服器中: char=幻影狂刀 account=lgdlcoco host=203.73.34.141
Jul 10, 2017 3:00:44 PM l1j.server.server.Account load
FINE: account exists
Jul 10, 2017 3:00:44 PM l1j.server.server.ClientThread run
FINE: Server thread[C] stopped
Jul 10, 2017 3:00:44 PM l1j.server.server.ClientThread run
INFO: (lgdlcoco:203.73.34.141)連線終止。
Jul 10, 2017 3:00:59 PM l1j.server.server.ClientThread run
INFO: (114.24.18.177) 連結到伺服器。
Jul 10, 2017 3:01:01 PM l1j.server.server.ClientThread run
FINE: Server thread[C] stopped
Jul 10, 2017 3:01:01 PM l1j.server.server.ClientThread run
INFO: (null:114.24.18.177)連線終止。
Jul 10, 2017 3:01:12 PM l1j.server.server.ClientThread run
INFO: (114.24.18.177) 連結到伺服器。
Jul 10, 2017 3:01:14 PM l1j.server.server.Account load
FINE: account exists
Jul 10, 2017 3:01:14 PM l1j.server.server.Account updateLastActive
FINE: update lastactive for oxy
Jul 10, 2017 3:01:14 PM l1j.server.server.Account load
FINE: account exists
Jul 10, 2017 3:01:24 PM l1j.server.server.Account load
FINE: account exists
Jul 10, 2017 3:01:24 PM l1j.server.server.clientpackets.C_LoginToServer <init>
INFO: 角色登入到伺服器中: char=Ladyboy account=oxy host=114.24.18.177
Jul 10, 2017 3:14:04 PM l1j.server.server.ClientThread run
INFO: (203.73.34.141) 連結到伺服器。
Jul 10, 2017 3:14:06 PM l1j.server.server.ClientThread run
FINE: Server thread[C] stopped
Jul 10, 2017 3:14:06 PM l1j.server.server.ClientThread run
INFO: (null:203.73.34.141)連線終止。
Jul 10, 2017 3:14:35 PM l1j.server.server.ClientThread run
INFO: (203.73.34.141) 連結到伺服器。
Jul 10, 2017 3:14:37 PM l1j.server.server.Account load
FINE: account exists
Jul 10, 2017 3:14:37 PM l1j.server.server.Account updateLastActive
FINE: update lastactive for lgdlcoco
Jul 10, 2017 3:14:37 PM l1j.server.server.Account load
FINE: account exists
Jul 10, 2017 3:15:08 PM l1j.server.server.Account load
FINE: account exists
Jul 10, 2017 3:15:08 PM l1j.server.server.clientpackets.C_LoginToServer <init>
INFO: 角色登入到伺服器中: char=幻影狂刀 account=lgdlcoco host=203.73.34.141
Jul 10, 2017 3:20:28 PM l1j.server.server.model.L1BossSpawn spawnBoss
FINE: [MOB]npcid:45682 name:安塔瑞斯[Type]Dragon[現在の周期]Mon Jul 10 18:00:00 UTC 2017 - Tue Jul 11 12:00:00 UTC 2017[出現時間]Mon Jul 10 21:12:41 UTC 2017
Jul 10, 2017 3:29:08 PM l1j.server.server.clientpackets.C_NewCharSelect <init>
FINE: Disconnect from: 何抓抓
Jul 10, 2017 3:29:08 PM l1j.server.server.Account load
FINE: account exists
Jul 10, 2017 3:29:14 PM l1j.server.server.Account load
FINE: account exists
Jul 10, 2017 3:29:14 PM l1j.server.server.clientpackets.C_LoginToServer <init>
INFO: 角色登入到伺服器中: char=何抓抓 account=will host=182.235.89.47
Jul 10, 2017 3:29:21 PM l1j.server.server.Account load
FINE: account exists
Jul 10, 2017 3:29:21 PM l1j.server.server.ClientThread run
FINE: Server thread[C] stopped
Jul 10, 2017 3:29:21 PM l1j.server.server.ClientThread run
INFO: (will:182.235.89.47)連線終止。
Jul 10, 2017 3:29:27 PM l1j.server.server.Account load
FINE: account exists
Jul 10, 2017 3:29:28 PM l1j.server.server.utils.StreamUtil close
SEVERE: Broken pipe (Write failed)
java.net.SocketException: Broken pipe (Write failed)
	at java.net.SocketOutputStream.socketWrite0(Native Method)
	at java.net.SocketOutputStream.socketWrite(SocketOutputStream.java:111)
	at java.net.SocketOutputStream.write(SocketOutputStream.java:155)
	at java.io.BufferedOutputStream.flushBuffer(BufferedOutputStream.java:82)
	at java.io.BufferedOutputStream.flush(BufferedOutputStream.java:140)
	at java.io.FilterOutputStream.close(FilterOutputStream.java:158)
	at l1j.server.server.utils.StreamUtil.close(StreamUtil.java:30)
	at l1j.server.server.ClientThread.run(ClientThread.java:334)
	at java.util.concurrent.ThreadPoolExecutor.runWorker(ThreadPoolExecutor.java:1142)
	at java.util.concurrent.ThreadPoolExecutor$Worker.run(ThreadPoolExecutor.java:617)
	at java.lang.Thread.run(Thread.java:748)

Jul 10, 2017 3:29:28 PM l1j.server.server.ClientThread run
FINE: Server thread[C] stopped
Jul 10, 2017 3:29:28 PM l1j.server.server.ClientThread run
INFO: (lgdlcoco:203.73.34.141)連線終止。
Jul 10, 2017 3:45:59 PM l1j.server.server.ClientThread run
INFO: (114.24.18.177) 連結到伺服器。
Jul 10, 2017 3:46:01 PM l1j.server.server.ClientThread run
FINE: Server thread[C] stopped
Jul 10, 2017 3:46:01 PM l1j.server.server.ClientThread run
INFO: (null:114.24.18.177)連線終止。
Jul 10, 2017 3:46:11 PM l1j.server.server.ClientThread run
INFO: (114.24.18.177) 連結到伺服器。
Jul 10, 2017 3:46:14 PM l1j.server.server.Account load
FINE: account exists
Jul 10, 2017 3:46:14 PM l1j.server.server.Account updateLastActive
FINE: update lastactive for gm
Jul 10, 2017 3:46:14 PM l1j.server.server.Account load
FINE: account exists
Jul 10, 2017 3:46:16 PM l1j.server.server.Account load
FINE: account exists
Jul 10, 2017 3:46:16 PM l1j.server.server.clientpackets.C_LoginToServer <init>
INFO: 角色登入到伺服器中: char=GM account=gm host=114.24.18.177
Jul 10, 2017 3:46:26 PM l1j.server.server.GMCommands executeDatabaseCommand
INFO: GM使用 .allbuff ladyboy的指令。
Jul 10, 2017 3:52:36 PM l1j.server.server.GMCommands executeDatabaseCommand
INFO: GM使用 .allbuff ladyboy的指令。
Jul 10, 2017 3:53:32 PM l1j.server.server.GMCommands executeDatabaseCommand
INFO: GM使用 .allbuff ladyboy的指令。
Jul 10, 2017 3:54:53 PM l1j.server.server.GMCommands executeDatabaseCommand
INFO: GM使用 .allbuff ladyboy的指令。
Jul 10, 2017 3:56:17 PM l1j.server.server.GMCommands executeDatabaseCommand
INFO: GM使用 .allbuff ladyboy的指令。
Jul 10, 2017 3:57:50 PM l1j.server.server.GMCommands executeDatabaseCommand
INFO: GM使用 .allbuff ladyboy的指令。
Jul 10, 2017 3:58:14 PM l1j.server.server.Account load
FINE: account exists
Jul 10, 2017 3:58:14 PM l1j.server.server.ClientThread run
FINE: Server thread[C] stopped
Jul 10, 2017 3:58:14 PM l1j.server.server.ClientThread run
INFO: (gm:114.24.18.177)連線終止。
Jul 10, 2017 3:58:19 PM l1j.server.server.Account load
FINE: account exists
Jul 10, 2017 3:58:19 PM l1j.server.server.ClientThread run
FINE: Server thread[C] stopped
Jul 10, 2017 3:58:19 PM l1j.server.server.ClientThread run
INFO: (oxy:114.24.18.177)連線終止。
Jul 10, 2017 5:04:42 PM l1j.server.server.HomeTownTimeController dailyProc
INFO: 城鎮系統：開始處理每日事項
Jul 10, 2017 9:04:42 PM l1j.server.server.HomeTownTimeController dailyProc
INFO: 城鎮系統：開始處理每日事項
Jul 11, 2017 12:54:40 AM l1j.server.server.ClientThread run
INFO: (61.222.160.131) 連結到伺服器。
Jul 11, 2017 12:54:42 AM l1j.server.server.ClientThread run
FINE: Server thread[C] stopped
Jul 11, 2017 12:54:42 AM l1j.server.server.ClientThread run
INFO: (null:61.222.160.131)連線終止。
Jul 11, 2017 12:54:53 AM l1j.server.server.ClientThread run
INFO: (61.222.160.131) 連結到伺服器。
Jul 11, 2017 12:54:55 AM l1j.server.server.Account load
FINE: account exists
Jul 11, 2017 12:54:55 AM l1j.server.server.Account updateLastActive
FINE: update lastactive for oxy
Jul 11, 2017 12:54:55 AM l1j.server.server.Account load
FINE: account exists
Jul 11, 2017 12:56:56 AM l1j.server.server.Account load
FINE: account exists
Jul 11, 2017 12:56:56 AM l1j.server.server.clientpackets.C_CreateChar <init>
FINE: charname: 騎馬攻城 classId: 0
Jul 11, 2017 12:57:00 AM l1j.server.server.Account load
FINE: account exists
Jul 11, 2017 12:57:00 AM l1j.server.server.clientpackets.C_LoginToServer <init>
INFO: 角色登入到伺服器中: char=騎馬攻城 account=oxy host=61.222.160.131
Jul 11, 2017 1:04:42 AM l1j.server.server.HomeTownTimeController dailyProc
INFO: 城鎮系統：開始處理每日事項
Jul 11, 2017 1:34:18 AM l1j.server.server.clientpackets.C_NewCharSelect <init>
FINE: Disconnect from: 騎馬攻城
Jul 11, 2017 1:34:18 AM l1j.server.server.Account load
FINE: account exists
Jul 11, 2017 1:34:22 AM l1j.server.server.Account load
FINE: account exists
Jul 11, 2017 1:34:22 AM l1j.server.server.clientpackets.C_LoginToServer <init>
INFO: 角色登入到伺服器中: char=騎馬攻城 account=oxy host=61.222.160.131
Jul 11, 2017 1:40:10 AM l1j.server.server.Account load
FINE: account exists
Jul 11, 2017 1:40:10 AM l1j.server.server.ClientThread run
FINE: Server thread[C] stopped
Jul 11, 2017 1:40:10 AM l1j.server.server.ClientThread run
INFO: (oxy:61.222.160.131)連線終止。
