Jul 10, 2017 8:51:22 AM l1j.server.Config load
INFO: loading gameserver config
Jul 10, 2017 8:51:22 AM com.mchange.v2.log.MLog <clinit>
INFO: MLog clients using java 1.4+ standard logging.
Jul 10, 2017 8:51:23 AM com.mchange.v2.c3p0.C3P0Registry banner
INFO: Initializing c3p0-0.9.1.2 [built 21-May-2007 15:04:56; debug? true; trace: 10]
Jul 10, 2017 8:51:23 AM com.mchange.v2.c3p0.impl.AbstractPoolBackedDataSource getPoolManager
INFO: Initializing c3p0 pool... com.mchange.v2.c3p0.ComboPooledDataSource [ acquireIncrement -> 5, acquireRetryAttempts -> 0, acquireRetryDelay -> 500, autoCommitOnClose -> true, automaticTestTable -> connection_test_table, breakAfterAcquireFailure -> false, checkoutTimeout -> 0, connectionCustomizerClassName -> null, connectionTesterClassName -> com.mchange.v2.c3p0.impl.DefaultConnectionTester, dataSourceName -> 1br9tvq9pc4gt0e13kt075|49097b5d, debugUnreturnedConnectionStackTraces -> false, description -> null, driverClass -> com.mysql.jdbc.Driver, factoryClassLocation -> null, forceIgnoreUnresolvedTransactions -> false, identityToken -> 1br9tvq9pc4gt0e13kt075|49097b5d, idleConnectionTestPeriod -> 60, initialPoolSize -> 10, jdbcUrl -> jdbc:mysql://lineage.c05pfwlo7viq.ap-southeast-1.rds.amazonaws.com/l1jdbtw?useUnicode=true&characterEncoding=utf8, maxAdministrativeTaskTime -> 0, maxConnectionAge -> 0, maxIdleTime -> 0, maxIdleTimeExcessConnections -> 0, maxPoolSize -> 100, maxStatements -> 0, maxStatementsPerConnection -> 100, minPoolSize -> 10, numHelperThreads -> 3, numThreadsAwaitingCheckoutDefaultUser -> 0, preferredTestQuery -> null, properties -> {user=******, password=******}, propertyCycle -> 0, testConnectionOnCheckin -> false, testConnectionOnCheckout -> false, unreturnedConnectionTimeout -> 0, usesTraditionalReflectiveProxies -> false ]
Jul 10, 2017 8:51:23 AM l1j.server.server.IdFactory loadState
INFO: 目前的物件ID: 268704633
Jul 10, 2017 8:51:23 AM l1j.server.server.datatables.MapsTable loadMapsFromDatabase
CONFIG: Maps 638
Jul 10, 2017 8:51:24 AM l1j.server.server.datatables.UBTable loadTable
CONFIG: UBリスト 5件ロード
Jul 10, 2017 8:51:24 AM com.mchange.v2.c3p0.stmt.GooGooStatementCache assimilateNewCheckedOutStatement
INFO: Multiply prepared statement! SELECT clan_id FROM clan_data WHERE hascastle = ?
Jul 10, 2017 8:51:24 AM com.mchange.v2.c3p0.stmt.GooGooStatementCache assimilateNewCheckedOutStatement
INFO: Multiply prepared statement! SELECT clan_id FROM clan_data WHERE hascastle = ?
Jul 10, 2017 8:51:24 AM com.mchange.v2.c3p0.stmt.GooGooStatementCache assimilateNewCheckedOutStatement
INFO: Multiply prepared statement! SELECT clan_id FROM clan_data WHERE hascastle = ?
Jul 10, 2017 8:51:24 AM com.mchange.v2.c3p0.stmt.GooGooStatementCache assimilateNewCheckedOutStatement
INFO: Multiply prepared statement! SELECT clan_id FROM clan_data WHERE hascastle = ?
Jul 10, 2017 8:51:24 AM com.mchange.v2.c3p0.stmt.GooGooStatementCache assimilateNewCheckedOutStatement
INFO: Multiply prepared statement! SELECT clan_id FROM clan_data WHERE hascastle = ?
Jul 10, 2017 8:51:24 AM com.mchange.v2.c3p0.stmt.GooGooStatementCache assimilateNewCheckedOutStatement
INFO: Multiply prepared statement! SELECT clan_id FROM clan_data WHERE hascastle = ?
Jul 10, 2017 8:51:24 AM com.mchange.v2.c3p0.stmt.GooGooStatementCache assimilateNewCheckedOutStatement
INFO: Multiply prepared statement! SELECT clan_id FROM clan_data WHERE hascastle = ?
Jul 10, 2017 8:51:24 AM l1j.server.server.Announcements readFromDisk
CONFIG: 讀取了  3 件公告
Jul 10, 2017 8:51:24 AM l1j.server.server.Announcecycle readFromDiskmulti
CONFIG: Announcecycle: Loaded 5 Announcecycle.
Jul 10, 2017 8:51:25 AM l1j.server.server.datatables.SprTable loadSprAction
CONFIG: SPRデータ 4843件ロード
Jul 10, 2017 8:51:25 AM l1j.server.server.datatables.MobGroupTable loadMobGroup
CONFIG: MOBグループリスト 79件ロード
Jul 10, 2017 8:51:27 AM l1j.server.server.datatables.SpawnTable fillSpawnTable
FINE: 総モンスター数 26692匹
Jul 10, 2017 8:51:27 AM l1j.server.server.datatables.SpawnTable <init>
CONFIG: モンスター配置リスト 6601件ロード
Jul 10, 2017 8:51:27 AM l1j.server.server.datatables.SkillsTable FillSkillsTable
CONFIG: スキル 253件ロード
Jul 10, 2017 8:51:27 AM l1j.server.server.datatables.PolyTable fillPolyTable
CONFIG: 変身リスト 297件ロード
Jul 10, 2017 8:51:27 AM l1j.server.server.datatables.DropItemTable loadMapsFromDatabase
CONFIG: drop_item 76
Jul 10, 2017 8:51:27 AM l1j.server.server.datatables.NPCTalkDataTable parseList
CONFIG: NPCアクションリスト 1112件ロード
Jul 10, 2017 8:51:27 AM l1j.server.server.datatables.NpcSpawnTable fillNpcSpawnTable
CONFIG: NPC配置リスト 2325件ロード
Jul 10, 2017 8:51:27 AM l1j.server.server.datatables.NpcSpawnTable fillNpcSpawnTable
FINE: 総NPC数 2325件
Jul 10, 2017 8:51:27 AM l1j.server.server.datatables.UBSpawnTable loadSpawnTable
CONFIG: UBモンスター配置リスト 454件ロード
Jul 10, 2017 8:51:29 AM l1j.server.server.datatables.WeaponSkillTable fillWeaponSkillTable
CONFIG: 武器スキルリスト 25件ロード
Jul 10, 2017 8:51:30 AM l1j.server.server.model.L1BossSpawn spawnBoss
FINE: [MOB]npcid:45228 name:希爾黛斯[Type]Caspa[現在の周期]Mon Jul 10 08:50:00 UTC 2017 - Mon Jul 10 09:00:00 UTC 2017[出現時間]Mon Jul 10 08:50:46 UTC 2017
Jul 10, 2017 8:51:30 AM l1j.server.server.model.L1BossSpawn spawnBoss
FINE: [MOB]npcid:45313 name:老虎[Type]Unknown[現在の周期]Mon Jul 10 08:50:00 UTC 2017 - Mon Jul 10 09:00:00 UTC 2017[出現時間]Mon Jul 10 08:52:14 UTC 2017
Jul 10, 2017 8:51:30 AM l1j.server.server.model.L1BossSpawn spawnBoss
FINE: [MOB]npcid:45317 name:強盜[Type]DK[現在の周期]Mon Jul 10 08:50:00 UTC 2017 - Mon Jul 10 09:00:00 UTC 2017[出現時間]Mon Jul 10 08:50:32 UTC 2017
Jul 10, 2017 8:51:30 AM l1j.server.server.model.L1BossSpawn spawnBoss
FINE: [MOB]npcid:45338 name:巨大鱷魚[Type]Caspa[現在の周期]Mon Jul 10 08:50:00 UTC 2017 - Mon Jul 10 09:00:00 UTC 2017[出現時間]Mon Jul 10 08:53:28 UTC 2017
Jul 10, 2017 8:51:30 AM l1j.server.server.model.L1BossSpawn spawnBoss
FINE: [MOB]npcid:45370 name:強盜頭目[Type]etc1[現在の周期]Mon Jul 10 08:50:00 UTC 2017 - Mon Jul 10 09:00:00 UTC 2017[出現時間]Mon Jul 10 08:52:38 UTC 2017
Jul 10, 2017 8:51:30 AM l1j.server.server.model.L1BossSpawn spawnBoss
FINE: [MOB]npcid:45370 name:強盜頭目[Type]etc1[現在の周期]Mon Jul 10 08:50:00 UTC 2017 - Mon Jul 10 09:00:00 UTC 2017[出現時間]Mon Jul 10 08:51:23 UTC 2017
Jul 10, 2017 8:51:30 AM l1j.server.server.model.L1BossSpawn spawnBoss
FINE: [MOB]npcid:45370 name:強盜頭目[Type]etc1[現在の周期]Mon Jul 10 08:50:00 UTC 2017 - Mon Jul 10 09:00:00 UTC 2017[出現時間]Mon Jul 10 08:54:57 UTC 2017
Jul 10, 2017 8:51:30 AM l1j.server.server.model.L1BossSpawn spawnBoss
FINE: [MOB]npcid:45370 name:強盜頭目[Type]etc1[現在の周期]Mon Jul 10 08:50:00 UTC 2017 - Mon Jul 10 09:00:00 UTC 2017[出現時間]Mon Jul 10 08:52:03 UTC 2017
Jul 10, 2017 8:51:30 AM l1j.server.server.model.L1BossSpawn spawnBoss
FINE: [MOB]npcid:45370 name:強盜頭目[Type]etc1[現在の周期]Mon Jul 10 08:50:00 UTC 2017 - Mon Jul 10 09:00:00 UTC 2017[出現時間]Mon Jul 10 08:55:15 UTC 2017
Jul 10, 2017 8:51:30 AM l1j.server.server.model.L1BossSpawn spawnBoss
FINE: [MOB]npcid:45456 name:魔法師[Type]etc1[現在の周期]Mon Jul 10 08:50:00 UTC 2017 - Mon Jul 10 09:00:00 UTC 2017[出現時間]Mon Jul 10 08:54:26 UTC 2017
Jul 10, 2017 8:51:30 AM l1j.server.server.model.L1BossSpawn spawnBoss
FINE: [MOB]npcid:45458 name:德雷克[Type]Oren[現在の周期]Mon Jul 10 08:50:00 UTC 2017 - Mon Jul 10 09:00:00 UTC 2017[出現時間]Mon Jul 10 08:53:15 UTC 2017
Jul 10, 2017 8:51:30 AM l1j.server.server.model.L1BossSpawn spawnBoss
FINE: [MOB]npcid:45488 name:卡士伯[Type]Caspa[現在の周期]Mon Jul 10 08:50:00 UTC 2017 - Mon Jul 10 09:00:00 UTC 2017[出現時間]Mon Jul 10 08:51:35 UTC 2017
Jul 10, 2017 8:51:30 AM l1j.server.server.model.L1BossSpawn spawnBoss
FINE: [MOB]npcid:45492 name:庫曼[Type]etc1[現在の周期]Mon Jul 10 08:50:00 UTC 2017 - Mon Jul 10 09:00:00 UTC 2017[出現時間]Mon Jul 10 08:52:37 UTC 2017
Jul 10, 2017 8:51:30 AM l1j.server.server.model.L1BossSpawn spawnBoss
FINE: [MOB]npcid:45534 name:曼波兔[Type]Caspa[現在の周期]Mon Jul 10 08:50:00 UTC 2017 - Mon Jul 10 09:00:00 UTC 2017[出現時間]Mon Jul 10 08:53:18 UTC 2017
Jul 10, 2017 8:51:30 AM l1j.server.server.model.L1BossSpawn spawnBoss
FINE: [MOB]npcid:45513 name:扭曲的潔尼斯女王[Type]Oren[現在の周期]Mon Jul 10 08:50:00 UTC 2017 - Mon Jul 10 09:00:00 UTC 2017[出現時間]Mon Jul 10 08:53:41 UTC 2017
Jul 10, 2017 8:51:30 AM l1j.server.server.model.L1BossSpawn spawnBoss
FINE: [MOB]npcid:45516 name:伊弗利特[Type]1Drake[現在の周期]Mon Jul 10 08:50:00 UTC 2017 - Mon Jul 10 09:00:00 UTC 2017[出現時間]Mon Jul 10 08:56:55 UTC 2017
Jul 10, 2017 8:51:30 AM l1j.server.server.model.L1BossSpawn spawnBoss
FINE: [MOB]npcid:45516 name:伊弗利特[Type]1Drake[現在の周期]Mon Jul 10 08:50:00 UTC 2017 - Mon Jul 10 09:00:00 UTC 2017[出現時間]Mon Jul 10 08:52:19 UTC 2017
Jul 10, 2017 8:51:30 AM l1j.server.server.model.L1BossSpawn spawnBoss
FINE: [MOB]npcid:45516 name:伊弗利特[Type]1Drake[現在の周期]Mon Jul 10 08:50:00 UTC 2017 - Mon Jul 10 09:00:00 UTC 2017[出現時間]Mon Jul 10 08:54:50 UTC 2017
Jul 10, 2017 8:51:30 AM l1j.server.server.model.L1BossSpawn spawnBoss
FINE: [MOB]npcid:45516 name:伊弗利特[Type]1Drake[現在の周期]Mon Jul 10 08:50:00 UTC 2017 - Mon Jul 10 09:00:00 UTC 2017[出現時間]Mon Jul 10 08:50:21 UTC 2017
Jul 10, 2017 8:51:30 AM l1j.server.server.model.L1BossSpawn spawnBoss
FINE: [MOB]npcid:45529 name:飛龍[Type]2Drake[現在の周期]Mon Jul 10 08:50:00 UTC 2017 - Mon Jul 10 09:00:00 UTC 2017[出現時間]Mon Jul 10 08:57:56 UTC 2017
Jul 10, 2017 8:51:30 AM l1j.server.server.model.L1BossSpawn spawnBoss
FINE: [MOB]npcid:45529 name:飛龍[Type]1Drake[現在の周期]Mon Jul 10 08:50:00 UTC 2017 - Mon Jul 10 09:00:00 UTC 2017[出現時間]Mon Jul 10 08:55:32 UTC 2017
Jul 10, 2017 8:51:30 AM l1j.server.server.model.L1BossSpawn spawnBoss
FINE: [MOB]npcid:45529 name:飛龍[Type]1Drake[現在の周期]Mon Jul 10 08:50:00 UTC 2017 - Mon Jul 10 09:00:00 UTC 2017[出現時間]Mon Jul 10 08:52:15 UTC 2017
Jul 10, 2017 8:51:30 AM l1j.server.server.model.L1BossSpawn spawnBoss
FINE: [MOB]npcid:45529 name:飛龍[Type]2Drake[現在の周期]Mon Jul 10 08:50:00 UTC 2017 - Mon Jul 10 09:00:00 UTC 2017[出現時間]Mon Jul 10 08:55:35 UTC 2017
Jul 10, 2017 8:51:30 AM l1j.server.server.model.L1BossSpawn spawnBoss
FINE: [MOB]npcid:45535 name:曼波兔[Type]Caspa[現在の周期]Mon Jul 10 08:50:00 UTC 2017 - Mon Jul 10 09:00:00 UTC 2017[出現時間]Mon Jul 10 08:51:58 UTC 2017
Jul 10, 2017 8:51:30 AM l1j.server.server.model.L1BossSpawn spawnBoss
FINE: [MOB]npcid:45545 name:黑長者[Type]Caspa[現在の周期]Mon Jul 10 08:50:00 UTC 2017 - Mon Jul 10 09:00:00 UTC 2017[出現時間]Mon Jul 10 08:55:20 UTC 2017
Jul 10, 2017 8:51:30 AM l1j.server.server.model.L1BossSpawn spawnBoss
FINE: [MOB]npcid:45545 name:黑長者[Type]Caspa[現在の周期]Mon Jul 10 08:50:00 UTC 2017 - Mon Jul 10 09:00:00 UTC 2017[出現時間]Mon Jul 10 08:50:57 UTC 2017
Jul 10, 2017 8:51:30 AM l1j.server.server.model.L1BossSpawn spawnBoss
FINE: [MOB]npcid:45546 name:變形怪首領[Type]Aden[現在の周期]Mon Jul 10 08:50:00 UTC 2017 - Mon Jul 10 09:00:00 UTC 2017[出現時間]Mon Jul 10 08:53:06 UTC 2017
Jul 10, 2017 8:51:30 AM l1j.server.server.model.L1BossSpawn spawnBoss
FINE: [MOB]npcid:45547 name:不幸的幻象眼魔[Type]Oren[現在の周期]Mon Jul 10 08:50:00 UTC 2017 - Mon Jul 10 09:00:00 UTC 2017[出現時間]Mon Jul 10 08:56:43 UTC 2017
Jul 10, 2017 8:51:30 AM l1j.server.server.model.L1BossSpawn spawnBoss
FINE: [MOB]npcid:45573 name:巴風特[Type]Oren[現在の周期]Mon Jul 10 08:50:00 UTC 2017 - Mon Jul 10 09:00:00 UTC 2017[出現時間]Mon Jul 10 08:56:37 UTC 2017
Jul 10, 2017 8:51:30 AM l1j.server.server.model.L1BossSpawn spawnBoss
FINE: [MOB]npcid:45583 name:巴列斯[Type]Oren[現在の周期]Mon Jul 10 08:50:00 UTC 2017 - Mon Jul 10 09:00:00 UTC 2017[出現時間]Mon Jul 10 08:56:18 UTC 2017
Jul 10, 2017 8:51:30 AM l1j.server.server.model.L1BossSpawn spawnBoss
FINE: [MOB]npcid:45584 name:巨大牛人[Type]Aden[現在の周期]Mon Jul 10 08:50:00 UTC 2017 - Mon Jul 10 09:00:00 UTC 2017[出現時間]Mon Jul 10 08:53:42 UTC 2017
Jul 10, 2017 8:51:30 AM l1j.server.server.model.L1BossSpawn spawnBoss
FINE: [MOB]npcid:45600 name:克特[Type]Night[現在の周期]Mon Jul 10 08:50:00 UTC 2017 - Mon Jul 10 09:00:00 UTC 2017[出現時間]Mon Jul 10 08:50:03 UTC 2017
Jul 10, 2017 8:51:30 AM l1j.server.server.model.L1BossSpawn spawnBoss
FINE: [MOB]npcid:45601 name:死亡騎士[Type]DK[現在の周期]Mon Jul 10 08:50:00 UTC 2017 - Mon Jul 10 09:00:00 UTC 2017[出現時間]Mon Jul 10 08:55:01 UTC 2017
Jul 10, 2017 8:51:30 AM l1j.server.server.model.L1BossSpawn spawnBoss
FINE: [MOB]npcid:45606 name:恐怖的吸血鬼[Type]Oren[現在の周期]Mon Jul 10 08:50:00 UTC 2017 - Mon Jul 10 09:00:00 UTC 2017[出現時間]Mon Jul 10 08:54:52 UTC 2017
Jul 10, 2017 8:51:30 AM l1j.server.server.model.L1BossSpawn spawnBoss
FINE: [MOB]npcid:45609 name:冰之女王侍女[Type]Oren[現在の周期]Mon Jul 10 08:50:00 UTC 2017 - Mon Jul 10 09:00:00 UTC 2017[出現時間]Mon Jul 10 08:50:41 UTC 2017
Jul 10, 2017 8:51:30 AM l1j.server.server.model.L1BossSpawn spawnBoss
FINE: [MOB]npcid:45610 name:古代巨人[Type]Aden[現在の周期]Mon Jul 10 08:50:00 UTC 2017 - Mon Jul 10 09:00:00 UTC 2017[出現時間]Mon Jul 10 08:57:17 UTC 2017
Jul 10, 2017 8:51:30 AM l1j.server.server.model.L1BossSpawn spawnBoss
FINE: [MOB]npcid:45614 name:巨蟻女皇[Type]DK[現在の周期]Mon Jul 10 08:50:00 UTC 2017 - Mon Jul 10 09:00:00 UTC 2017[出現時間]Mon Jul 10 08:53:52 UTC 2017
Jul 10, 2017 8:51:30 AM l1j.server.server.model.L1BossSpawn spawnBoss
FINE: [MOB]npcid:45617 name:不死鳥[Type]DK[現在の周期]Mon Jul 10 08:50:00 UTC 2017 - Mon Jul 10 09:00:00 UTC 2017[出現時間]Mon Jul 10 08:55:54 UTC 2017
Jul 10, 2017 8:51:30 AM l1j.server.server.model.L1BossSpawn spawnBoss
FINE: [MOB]npcid:45618 name:闇黑的騎士范德[Type]Oren[現在の周期]Mon Jul 10 08:50:00 UTC 2017 - Mon Jul 10 09:00:00 UTC 2017[出現時間]Mon Jul 10 08:56:01 UTC 2017
Jul 10, 2017 8:51:30 AM l1j.server.server.model.L1BossSpawn spawnBoss
FINE: [MOB]npcid:45625 name:混沌[Type]DK[現在の周期]Mon Jul 10 08:50:00 UTC 2017 - Mon Jul 10 09:00:00 UTC 2017[出現時間]Mon Jul 10 08:59:31 UTC 2017
Jul 10, 2017 8:51:30 AM l1j.server.server.model.L1BossSpawn spawnBoss
FINE: [MOB]npcid:45640 name:獨角獸[Type]Caspa[現在の周期]Mon Jul 10 08:50:00 UTC 2017 - Mon Jul 10 09:00:00 UTC 2017[出現時間]Mon Jul 10 08:51:43 UTC 2017
Jul 10, 2017 8:51:30 AM l1j.server.server.model.L1BossSpawn spawnBoss
FINE: [MOB]npcid:45642 name:土精靈王[Type]Caspa[現在の周期]Mon Jul 10 08:50:00 UTC 2017 - Mon Jul 10 09:00:00 UTC 2017[出現時間]Mon Jul 10 08:55:08 UTC 2017
Jul 10, 2017 8:51:30 AM l1j.server.server.model.L1BossSpawn spawnBoss
FINE: [MOB]npcid:45643 name:水精靈王[Type]Caspa[現在の周期]Mon Jul 10 08:50:00 UTC 2017 - Mon Jul 10 09:00:00 UTC 2017[出現時間]Mon Jul 10 08:58:56 UTC 2017
Jul 10, 2017 8:51:30 AM l1j.server.server.model.L1BossSpawn spawnBoss
FINE: [MOB]npcid:45644 name:風精靈王[Type]Caspa[現在の周期]Mon Jul 10 08:50:00 UTC 2017 - Mon Jul 10 09:00:00 UTC 2017[出現時間]Mon Jul 10 08:56:43 UTC 2017
Jul 10, 2017 8:51:30 AM l1j.server.server.model.L1BossSpawn spawnBoss
FINE: [MOB]npcid:45645 name:火精靈王[Type]Caspa[現在の周期]Mon Jul 10 08:50:00 UTC 2017 - Mon Jul 10 09:00:00 UTC 2017[出現時間]Mon Jul 10 08:56:07 UTC 2017
Jul 10, 2017 8:51:30 AM l1j.server.server.model.L1BossSpawn spawnBoss
FINE: [MOB]npcid:45646 name:深淵之主[Type]Oren[現在の周期]Mon Jul 10 08:50:00 UTC 2017 - Mon Jul 10 09:00:00 UTC 2017[出現時間]Mon Jul 10 08:54:40 UTC 2017
Jul 10, 2017 8:51:30 AM l1j.server.server.model.L1BossSpawn spawnBoss
FINE: [MOB]npcid:45649 name:惡魔[Type]Oren[現在の周期]Mon Jul 10 08:50:00 UTC 2017 - Mon Jul 10 09:00:00 UTC 2017[出現時間]Mon Jul 10 08:56:03 UTC 2017
Jul 10, 2017 8:51:30 AM l1j.server.server.model.L1BossSpawn spawnBoss
FINE: [MOB]npcid:45650 name:死亡的殭屍王[Type]Oren[現在の周期]Mon Jul 10 08:50:00 UTC 2017 - Mon Jul 10 09:00:00 UTC 2017[出現時間]Mon Jul 10 08:55:36 UTC 2017
Jul 10, 2017 8:51:30 AM l1j.server.server.model.L1BossSpawn spawnBoss
FINE: [MOB]npcid:45651 name:魔獸軍王‧巴蘭卡[Type]Aden[現在の周期]Mon Jul 10 08:50:00 UTC 2017 - Mon Jul 10 09:00:00 UTC 2017[出現時間]Mon Jul 10 08:57:37 UTC 2017
Jul 10, 2017 8:51:30 AM l1j.server.server.model.L1BossSpawn spawnBoss
FINE: [MOB]npcid:45652 name:地獄的黑豹[Type]Oren[現在の周期]Mon Jul 10 08:50:00 UTC 2017 - Mon Jul 10 09:00:00 UTC 2017[出現時間]Mon Jul 10 08:52:02 UTC 2017
Jul 10, 2017 8:51:30 AM l1j.server.server.model.L1BossSpawn spawnBoss
FINE: [MOB]npcid:45653 name:不死的木乃伊王[Type]Oren[現在の周期]Mon Jul 10 08:50:00 UTC 2017 - Mon Jul 10 09:00:00 UTC 2017[出現時間]Mon Jul 10 08:58:29 UTC 2017
Jul 10, 2017 8:51:30 AM l1j.server.server.model.L1BossSpawn spawnBoss
FINE: [MOB]npcid:45654 name:冷酷的艾莉絲[Type]Oren[現在の周期]Mon Jul 10 08:50:00 UTC 2017 - Mon Jul 10 09:00:00 UTC 2017[出現時間]Mon Jul 10 08:59:45 UTC 2017
Jul 10, 2017 8:51:30 AM l1j.server.server.model.L1BossSpawn spawnBoss
FINE: [MOB]npcid:45671 name:阿利歐克[Type]Aden[現在の周期]Mon Jul 10 08:50:00 UTC 2017 - Mon Jul 10 09:00:00 UTC 2017[出現時間]Mon Jul 10 08:57:37 UTC 2017
Jul 10, 2017 8:51:30 AM l1j.server.server.model.L1BossSpawn spawnBoss
FINE: [MOB]npcid:45672 name:不滅的巫妖[Type]Oren[現在の周期]Mon Jul 10 08:50:00 UTC 2017 - Mon Jul 10 09:00:00 UTC 2017[出現時間]Mon Jul 10 08:56:08 UTC 2017
Jul 10, 2017 8:51:30 AM l1j.server.server.model.L1BossSpawn spawnBoss
FINE: [MOB]npcid:45673 name:邪惡的鐮刀死神[Type]Oren[現在の周期]Mon Jul 10 08:50:00 UTC 2017 - Mon Jul 10 09:00:00 UTC 2017[出現時間]Mon Jul 10 08:55:05 UTC 2017
Jul 10, 2017 8:51:30 AM l1j.server.server.model.L1BossSpawn spawnBoss
FINE: [MOB]npcid:45674 name:死亡[Type]DK[現在の周期]Mon Jul 10 08:50:00 UTC 2017 - Mon Jul 10 09:00:00 UTC 2017[出現時間]Mon Jul 10 08:56:28 UTC 2017
Jul 10, 2017 8:51:30 AM l1j.server.server.model.L1BossSpawn spawnBoss
FINE: [MOB]npcid:45675 name:火焰之影[Type]DK[現在の周期]Mon Jul 10 08:50:00 UTC 2017 - Mon Jul 10 09:00:00 UTC 2017[出現時間]Mon Jul 10 08:57:46 UTC 2017
Jul 10, 2017 8:51:30 AM l1j.server.server.model.L1BossSpawn spawnBoss
FINE: [MOB]npcid:45680 name:反王肯恩[Type]Aden[現在の周期]Mon Jul 10 08:50:00 UTC 2017 - Mon Jul 10 09:00:00 UTC 2017[出現時間]Mon Jul 10 08:56:44 UTC 2017
Jul 10, 2017 8:51:30 AM l1j.server.server.model.L1BossSpawn spawnBoss
FINE: [MOB]npcid:45681 name:林德拜爾[Type]Dragon[現在の周期]Mon Jul 10 00:00:00 UTC 2017 - Mon Jul 10 18:00:00 UTC 2017[出現時間]Mon Jul 10 05:57:03 UTC 2017
Jul 10, 2017 8:51:30 AM l1j.server.server.model.L1BossSpawn spawnBoss
FINE: [MOB]npcid:45682 name:安塔瑞斯[Type]Dragon[現在の周期]Mon Jul 10 00:00:00 UTC 2017 - Mon Jul 10 18:00:00 UTC 2017[出現時間]Mon Jul 10 02:57:29 UTC 2017
Jul 10, 2017 8:51:30 AM l1j.server.server.model.L1BossSpawn spawnBoss
FINE: [MOB]npcid:45683 name:法利昂[Type]Dragon[現在の周期]Mon Jul 10 00:00:00 UTC 2017 - Mon Jul 10 18:00:00 UTC 2017[出現時間]Mon Jul 10 05:18:30 UTC 2017
Jul 10, 2017 8:51:30 AM l1j.server.server.model.L1BossSpawn spawnBoss
FINE: [MOB]npcid:45684 name:巴拉卡斯[Type]Dragon[現在の周期]Mon Jul 10 00:00:00 UTC 2017 - Mon Jul 10 18:00:00 UTC 2017[出現時間]Mon Jul 10 12:13:25 UTC 2017
Jul 10, 2017 8:51:30 AM l1j.server.server.model.L1BossSpawn spawnBoss
FINE: [MOB]npcid:45685 name:墮落[Type]DK[現在の周期]Mon Jul 10 08:50:00 UTC 2017 - Mon Jul 10 09:00:00 UTC 2017[出現時間]Mon Jul 10 08:50:33 UTC 2017
Jul 10, 2017 8:51:30 AM l1j.server.server.model.L1BossSpawn spawnBoss
FINE: [MOB]npcid:45711 name:高麗幼犬[Type]Unknown[現在の周期]Mon Jul 10 08:50:00 UTC 2017 - Mon Jul 10 09:00:00 UTC 2017[出現時間]Mon Jul 10 08:50:33 UTC 2017
Jul 10, 2017 8:51:30 AM l1j.server.server.model.L1BossSpawn spawnBoss
FINE: [MOB]npcid:45711 name:高麗幼犬[Type]Unknown[現在の周期]Mon Jul 10 08:50:00 UTC 2017 - Mon Jul 10 09:00:00 UTC 2017[出現時間]Mon Jul 10 08:59:12 UTC 2017
Jul 10, 2017 8:51:30 AM l1j.server.server.model.L1BossSpawn spawnBoss
FINE: [MOB]npcid:45711 name:高麗幼犬[Type]Unknown[現在の周期]Mon Jul 10 08:50:00 UTC 2017 - Mon Jul 10 09:00:00 UTC 2017[出現時間]Mon Jul 10 08:59:55 UTC 2017
Jul 10, 2017 8:51:30 AM l1j.server.server.model.L1BossSpawn spawnBoss
FINE: [MOB]npcid:45711 name:高麗幼犬[Type]Unknown[現在の周期]Mon Jul 10 08:50:00 UTC 2017 - Mon Jul 10 09:00:00 UTC 2017[出現時間]Mon Jul 10 08:58:16 UTC 2017
Jul 10, 2017 8:51:30 AM l1j.server.server.model.L1BossSpawn spawnBoss
FINE: [MOB]npcid:45711 name:高麗幼犬[Type]Unknown[現在の周期]Mon Jul 10 08:50:00 UTC 2017 - Mon Jul 10 09:00:00 UTC 2017[出現時間]Mon Jul 10 08:57:15 UTC 2017
Jul 10, 2017 8:51:30 AM l1j.server.server.model.L1BossSpawn spawnBoss
FINE: [MOB]npcid:45711 name:高麗幼犬[Type]Unknown[現在の周期]Mon Jul 10 08:50:00 UTC 2017 - Mon Jul 10 09:00:00 UTC 2017[出現時間]Mon Jul 10 08:56:13 UTC 2017
Jul 10, 2017 8:51:30 AM l1j.server.server.model.L1BossSpawn spawnBoss
FINE: [MOB]npcid:45711 name:高麗幼犬[Type]Unknown[現在の周期]Mon Jul 10 08:50:00 UTC 2017 - Mon Jul 10 09:00:00 UTC 2017[出現時間]Mon Jul 10 08:51:05 UTC 2017
Jul 10, 2017 8:51:30 AM l1j.server.server.model.L1BossSpawn spawnBoss
FINE: [MOB]npcid:45734 name:大王烏賊[Type]Unknown[現在の周期]Mon Jul 10 08:50:00 UTC 2017 - Mon Jul 10 09:00:00 UTC 2017[出現時間]Mon Jul 10 08:52:32 UTC 2017
Jul 10, 2017 8:51:30 AM l1j.server.server.model.L1BossSpawn spawnBoss
FINE: [MOB]npcid:45735 name:半魚人首領[Type]Unknown[現在の周期]Mon Jul 10 08:50:00 UTC 2017 - Mon Jul 10 09:00:00 UTC 2017[出現時間]Mon Jul 10 08:54:16 UTC 2017
Jul 10, 2017 8:51:30 AM l1j.server.server.model.L1BossSpawn spawnBoss
FINE: [MOB]npcid:45752 name:炎魔[Type]DK[現在の周期]Mon Jul 10 08:50:00 UTC 2017 - Mon Jul 10 09:00:00 UTC 2017[出現時間]Mon Jul 10 08:56:59 UTC 2017
Jul 10, 2017 8:51:30 AM l1j.server.server.model.L1BossSpawn spawnBoss
FINE: [MOB]npcid:45772 name:污濁 妖魔戰士[Type]Unknown[現在の周期]Mon Jul 10 08:50:00 UTC 2017 - Mon Jul 10 09:00:00 UTC 2017[出現時間]Mon Jul 10 08:50:03 UTC 2017
Jul 10, 2017 8:51:30 AM l1j.server.server.model.L1BossSpawn spawnBoss
FINE: [MOB]npcid:45795 name:樹精[Type]Unknown[現在の周期]Mon Jul 10 08:50:00 UTC 2017 - Mon Jul 10 09:00:00 UTC 2017[出現時間]Mon Jul 10 08:55:14 UTC 2017
Jul 10, 2017 8:51:30 AM l1j.server.server.model.L1BossSpawn spawnBoss
FINE: [MOB]npcid:45801 name:瑪依奴夏門的鑽石高崙[Type]Unknown[現在の周期]Mon Jul 10 08:50:00 UTC 2017 - Mon Jul 10 09:00:00 UTC 2017[出現時間]Mon Jul 10 08:57:20 UTC 2017
Jul 10, 2017 8:51:30 AM l1j.server.server.model.L1BossSpawn spawnBoss
FINE: [MOB]npcid:45802 name:瑪依奴夏門[Type]Unknown[現在の周期]Mon Jul 10 08:50:00 UTC 2017 - Mon Jul 10 09:00:00 UTC 2017[出現時間]Mon Jul 10 08:54:08 UTC 2017
Jul 10, 2017 8:51:30 AM l1j.server.server.model.L1BossSpawn spawnBoss
FINE: [MOB]npcid:45829 name:巴貝多[Type]Unknown[現在の周期]Mon Jul 10 08:50:00 UTC 2017 - Mon Jul 10 09:00:00 UTC 2017[出現時間]Mon Jul 10 08:55:59 UTC 2017
Jul 10, 2017 8:51:30 AM l1j.server.server.model.L1BossSpawn spawnBoss
FINE: [MOB]npcid:81081 name:法利昂的信奉者[Type]Caspa[現在の周期]Mon Jul 10 08:50:00 UTC 2017 - Mon Jul 10 09:00:00 UTC 2017[出現時間]Mon Jul 10 08:59:44 UTC 2017
Jul 10, 2017 8:51:30 AM l1j.server.server.model.L1BossSpawn spawnBoss
FINE: [MOB]npcid:81081 name:法利昂的信奉者[Type]Caspa[現在の周期]Mon Jul 10 08:50:00 UTC 2017 - Mon Jul 10 09:00:00 UTC 2017[出現時間]Mon Jul 10 08:56:10 UTC 2017
Jul 10, 2017 8:51:30 AM l1j.server.server.model.L1BossSpawn spawnBoss
FINE: [MOB]npcid:45548 name:豪勢[Type]Oren[現在の周期]Mon Jul 10 08:50:00 UTC 2017 - Mon Jul 10 09:00:00 UTC 2017[出現時間]Mon Jul 10 08:52:39 UTC 2017
Jul 10, 2017 8:51:30 AM l1j.server.server.model.L1BossSpawn spawnBoss
FINE: [MOB]npcid:45585 name:暗殺團長．布雷哲[Type]Unknown[現在の周期]Mon Jul 10 08:50:00 UTC 2017 - Mon Jul 10 09:00:00 UTC 2017[出現時間]Mon Jul 10 08:55:54 UTC 2017
Jul 10, 2017 8:51:30 AM l1j.server.server.model.L1BossSpawn spawnBoss
FINE: [MOB]npcid:45574 name:親衛隊長．凱特[Type]Unknown[現在の周期]Mon Jul 10 08:50:00 UTC 2017 - Mon Jul 10 09:00:00 UTC 2017[出現時間]Mon Jul 10 08:56:51 UTC 2017
Jul 10, 2017 8:51:30 AM l1j.server.server.model.L1BossSpawn spawnBoss
FINE: [MOB]npcid:45648 name:暗殺軍王．史雷佛[Type]Unknown[現在の周期]Mon Jul 10 08:50:00 UTC 2017 - Mon Jul 10 09:00:00 UTC 2017[出現時間]Mon Jul 10 08:52:27 UTC 2017
Jul 10, 2017 8:51:30 AM l1j.server.server.model.L1BossSpawn spawnBoss
FINE: [MOB]npcid:45577 name:突擊旅長．闇黑劍士[Type]Unknown[現在の周期]Mon Jul 10 08:50:00 UTC 2017 - Mon Jul 10 09:00:00 UTC 2017[出現時間]Mon Jul 10 08:57:28 UTC 2017
Jul 10, 2017 8:51:30 AM l1j.server.server.model.L1BossSpawn spawnBoss
FINE: [MOB]npcid:45844 name:魔獸軍王．巴蘭卡[Type]Unknown[現在の周期]Mon Jul 10 08:50:00 UTC 2017 - Mon Jul 10 09:00:00 UTC 2017[出現時間]Mon Jul 10 08:55:56 UTC 2017
Jul 10, 2017 8:51:30 AM l1j.server.server.model.L1BossSpawn spawnBoss
FINE: [MOB]npcid:45588 name:魔獸師長．辛克萊[Type]Unknown[現在の周期]Mon Jul 10 08:50:00 UTC 2017 - Mon Jul 10 09:00:00 UTC 2017[出現時間]Mon Jul 10 08:58:29 UTC 2017
Jul 10, 2017 8:51:30 AM l1j.server.server.model.L1BossSpawn spawnBoss
FINE: [MOB]npcid:45607 name:魔獸團長．凱巴勒[Type]Unknown[現在の周期]Mon Jul 10 08:50:00 UTC 2017 - Mon Jul 10 09:00:00 UTC 2017[出現時間]Mon Jul 10 08:55:50 UTC 2017
Jul 10, 2017 8:51:30 AM l1j.server.server.model.L1BossSpawn spawnBoss
FINE: [MOB]npcid:45612 name:神官長．邦妮[Type]Unknown[現在の周期]Mon Jul 10 08:50:00 UTC 2017 - Mon Jul 10 09:00:00 UTC 2017[出現時間]Mon Jul 10 08:54:43 UTC 2017
Jul 10, 2017 8:51:30 AM l1j.server.server.model.L1BossSpawn spawnBoss
FINE: [MOB]npcid:45602 name:魔法團長．卡勒米爾[Type]Unknown[現在の周期]Mon Jul 10 08:50:00 UTC 2017 - Mon Jul 10 09:00:00 UTC 2017[出現時間]Mon Jul 10 08:57:26 UTC 2017
Jul 10, 2017 8:51:30 AM l1j.server.server.model.L1BossSpawn spawnBoss
FINE: [MOB]npcid:45863 name:法令軍王．蕾雅[Type]Unknown[現在の周期]Mon Jul 10 08:50:00 UTC 2017 - Mon Jul 10 09:00:00 UTC 2017[出現時間]Mon Jul 10 08:53:26 UTC 2017
Jul 10, 2017 8:51:30 AM l1j.server.server.model.L1BossSpawn spawnBoss
FINE: [MOB]npcid:45608 name:傭兵隊長．麥帕斯托[Type]Unknown[現在の周期]Mon Jul 10 08:50:00 UTC 2017 - Mon Jul 10 09:00:00 UTC 2017[出現時間]Mon Jul 10 08:53:54 UTC 2017
Jul 10, 2017 8:51:30 AM l1j.server.server.model.L1BossSpawn spawnBoss
FINE: [MOB]npcid:45615 name:冥法團長．可利波斯[Type]Unknown[現在の周期]Mon Jul 10 08:50:00 UTC 2017 - Mon Jul 10 09:00:00 UTC 2017[出現時間]Mon Jul 10 08:59:38 UTC 2017
Jul 10, 2017 8:51:30 AM l1j.server.server.model.L1BossSpawn spawnBoss
FINE: [MOB]npcid:45676 name:冥法軍王．海露拜[Type]Unknown[現在の周期]Mon Jul 10 08:50:00 UTC 2017 - Mon Jul 10 09:00:00 UTC 2017[出現時間]Mon Jul 10 08:51:19 UTC 2017
Jul 10, 2017 8:51:30 AM l1j.server.server.model.L1BossSpawn spawnBoss
FINE: [MOB]npcid:46024 name:伯爵的親衛隊[Type]Unknown[現在の周期]Mon Jul 10 08:50:00 UTC 2017 - Mon Jul 10 09:00:00 UTC 2017[出現時間]Mon Jul 10 08:56:49 UTC 2017
Jul 10, 2017 8:51:30 AM l1j.server.server.model.L1BossSpawn spawnBoss
FINE: [MOB]npcid:46025 name:塔洛斯伯爵[Type]Unknown[現在の周期]Mon Jul 10 08:50:00 UTC 2017 - Mon Jul 10 09:00:00 UTC 2017[出現時間]Mon Jul 10 08:52:00 UTC 2017
Jul 10, 2017 8:51:30 AM l1j.server.server.model.L1BossSpawn spawnBoss
FINE: [MOB]npcid:46026 name:曼孟[Type]Unknown[現在の周期]Mon Jul 10 08:50:00 UTC 2017 - Mon Jul 10 09:00:00 UTC 2017[出現時間]Mon Jul 10 08:57:02 UTC 2017
Jul 10, 2017 8:51:30 AM l1j.server.server.model.L1BossSpawn spawnBoss
FINE: [MOB]npcid:46037 name:瑪雅[Type]Unknown[現在の周期]Mon Jul 10 08:50:00 UTC 2017 - Mon Jul 10 09:00:00 UTC 2017[出現時間]Mon Jul 10 08:52:34 UTC 2017
Jul 10, 2017 8:51:30 AM l1j.server.server.model.L1BossSpawn spawnBoss
FINE: [MOB]npcid:45935 name:受詛咒的 梅杜莎[Type]1Drake[現在の周期]Mon Jul 10 08:50:00 UTC 2017 - Mon Jul 10 09:00:00 UTC 2017[出現時間]Mon Jul 10 08:59:20 UTC 2017
Jul 10, 2017 8:51:30 AM l1j.server.server.model.L1BossSpawn spawnBoss
FINE: [MOB]npcid:45942 name:受詛咒的 水精靈王[Type]1Drake[現在の周期]Mon Jul 10 08:50:00 UTC 2017 - Mon Jul 10 09:00:00 UTC 2017[出現時間]Mon Jul 10 08:59:22 UTC 2017
Jul 10, 2017 8:51:30 AM l1j.server.server.model.L1BossSpawn spawnBoss
FINE: [MOB]npcid:45941 name:受詛咒的巫女莎爾[Type]1Drake[現在の周期]Mon Jul 10 08:50:00 UTC 2017 - Mon Jul 10 09:00:00 UTC 2017[出現時間]Mon Jul 10 08:59:28 UTC 2017
Jul 10, 2017 8:51:30 AM l1j.server.server.model.L1BossSpawn spawnBoss
FINE: [MOB]npcid:45931 name:水之精靈[Type]1Drake[現在の周期]Mon Jul 10 08:50:00 UTC 2017 - Mon Jul 10 09:00:00 UTC 2017[出現時間]Mon Jul 10 08:50:01 UTC 2017
Jul 10, 2017 8:51:30 AM l1j.server.server.model.L1BossSpawn spawnBoss
FINE: [MOB]npcid:45943 name:卡普[Type]1Drake[現在の周期]Mon Jul 10 08:50:00 UTC 2017 - Mon Jul 10 09:00:00 UTC 2017[出現時間]Mon Jul 10 08:53:35 UTC 2017
Jul 10, 2017 8:51:30 AM l1j.server.server.model.L1BossSpawn spawnBoss
FINE: [MOB]npcid:45944 name:巨大蜈蚣[Type]1Drake[現在の周期]Mon Jul 10 08:50:00 UTC 2017 - Mon Jul 10 09:00:00 UTC 2017[出現時間]Mon Jul 10 08:58:17 UTC 2017
Jul 10, 2017 8:51:30 AM l1j.server.server.model.L1BossSpawn spawnBoss
FINE: [MOB]npcid:45955 name:長老．琪娜[Type]Unknown[現在の周期]Mon Jul 10 08:50:00 UTC 2017 - Mon Jul 10 09:00:00 UTC 2017[出現時間]Mon Jul 10 08:50:20 UTC 2017
Jul 10, 2017 8:51:30 AM l1j.server.server.model.L1BossSpawn spawnBoss
FINE: [MOB]npcid:45956 name:長老．巴塔斯[Type]Unknown[現在の周期]Mon Jul 10 08:50:00 UTC 2017 - Mon Jul 10 09:00:00 UTC 2017[出現時間]Mon Jul 10 08:54:39 UTC 2017
Jul 10, 2017 8:51:30 AM l1j.server.server.model.L1BossSpawn spawnBoss
FINE: [MOB]npcid:45957 name:長老．巴洛斯[Type]Unknown[現在の周期]Mon Jul 10 08:50:00 UTC 2017 - Mon Jul 10 09:00:00 UTC 2017[出現時間]Mon Jul 10 08:53:44 UTC 2017
Jul 10, 2017 8:51:30 AM l1j.server.server.model.L1BossSpawn spawnBoss
FINE: [MOB]npcid:45958 name:長老．安迪斯[Type]Unknown[現在の周期]Mon Jul 10 08:50:00 UTC 2017 - Mon Jul 10 09:00:00 UTC 2017[出現時間]Mon Jul 10 08:56:35 UTC 2017
Jul 10, 2017 8:51:30 AM l1j.server.server.model.L1BossSpawn spawnBoss
FINE: [MOB]npcid:45959 name:長老．艾迪爾[Type]Unknown[現在の周期]Mon Jul 10 08:50:00 UTC 2017 - Mon Jul 10 09:00:00 UTC 2017[出現時間]Mon Jul 10 08:54:29 UTC 2017
Jul 10, 2017 8:51:30 AM l1j.server.server.model.L1BossSpawn spawnBoss
FINE: [MOB]npcid:45960 name:長老．泰瑪斯[Type]Unknown[現在の周期]Mon Jul 10 08:50:00 UTC 2017 - Mon Jul 10 09:00:00 UTC 2017[出現時間]Mon Jul 10 08:58:59 UTC 2017
Jul 10, 2017 8:51:30 AM l1j.server.server.model.L1BossSpawn spawnBoss
FINE: [MOB]npcid:45961 name:長老．拉曼斯[Type]Unknown[現在の周期]Mon Jul 10 08:50:00 UTC 2017 - Mon Jul 10 09:00:00 UTC 2017[出現時間]Mon Jul 10 08:52:35 UTC 2017
Jul 10, 2017 8:51:30 AM l1j.server.server.model.L1BossSpawn spawnBoss
FINE: [MOB]npcid:45962 name:長老．巴陸德[Type]Unknown[現在の周期]Mon Jul 10 08:50:00 UTC 2017 - Mon Jul 10 09:00:00 UTC 2017[出現時間]Mon Jul 10 08:57:53 UTC 2017
Jul 10, 2017 8:51:30 AM l1j.server.server.model.L1BossSpawn spawnBoss
FINE: [MOB]npcid:45963 name:副神官．卡山德拉[Type]Unknown[現在の周期]Mon Jul 10 08:50:00 UTC 2017 - Mon Jul 10 09:00:00 UTC 2017[出現時間]Mon Jul 10 08:59:35 UTC 2017
Jul 10, 2017 8:51:30 AM l1j.server.server.model.L1BossSpawn spawnBoss
FINE: [MOB]npcid:46124 name:底比斯 阿努比斯[Type]etc1[現在の周期]Mon Jul 10 08:50:00 UTC 2017 - Mon Jul 10 09:00:00 UTC 2017[出現時間]Mon Jul 10 08:55:23 UTC 2017
Jul 10, 2017 8:51:30 AM l1j.server.server.model.L1BossSpawn spawnBoss
FINE: [MOB]npcid:46123 name:底比斯 賀洛斯[Type]etc1[現在の周期]Mon Jul 10 08:50:00 UTC 2017 - Mon Jul 10 09:00:00 UTC 2017[出現時間]Mon Jul 10 08:50:07 UTC 2017
Jul 10, 2017 8:51:30 AM l1j.server.server.model.L1BossSpawn spawnBoss
FINE: [MOB]npcid:46141 name:冰之女王[Type]Oren[現在の周期]Mon Jul 10 08:50:00 UTC 2017 - Mon Jul 10 09:00:00 UTC 2017[出現時間]Mon Jul 10 08:55:07 UTC 2017
Jul 10, 2017 8:51:30 AM l1j.server.server.model.L1BossSpawn spawnBoss
FINE: [MOB]npcid:46142 name:冰魔[Type]Oren[現在の周期]Mon Jul 10 08:50:00 UTC 2017 - Mon Jul 10 09:00:00 UTC 2017[出現時間]Mon Jul 10 08:53:31 UTC 2017
Jul 10, 2017 8:51:30 AM l1j.server.server.model.L1BossSpawn spawnBoss
FINE: [MOB]npcid:81321 name:精銳 黑騎士隊長[Type]Night[現在の周期]Mon Jul 10 08:50:00 UTC 2017 - Mon Jul 10 09:00:00 UTC 2017[出現時間]Mon Jul 10 08:53:21 UTC 2017
Jul 10, 2017 8:51:30 AM l1j.server.server.datatables.BossSpawnTable fillSpawnTable
FINE: 総ボスモンスター数 131匹
Jul 10, 2017 8:51:30 AM l1j.server.server.datatables.ResolventTable loadMapsFromDatabase
CONFIG: resolvent 281
Jul 10, 2017 9:04:42 AM l1j.server.server.HomeTownTimeController dailyProc
INFO: 城鎮系統：開始處理每日事項
